<?xml version="1.0" encoding="UTF-8" standalone="no"?>
<!DOCTYPE svg PUBLIC "-//W3C//DTD SVG 1.1//EN"
 "http://www.w3.org/Graphics/SVG/1.1/DTD/svg11.dtd">
<!-- Generated by graphviz version 2.36.0 (20140111.2315)
 -->
<!-- Title: poze/100msgxx2.0 Pages: 1 -->
<svg width="226pt" height="476pt"
 viewBox="0.00 0.00 226.00 476.00" xmlns="http://www.w3.org/2000/svg" xmlns:xlink="http://www.w3.org/1999/xlink">
<g id="graph0" class="graph" transform="scale(1 1) rotate(0) translate(4 472)">
<title>poze/100msgxx2.0</title>
<polygon fill="white" stroke="none" points="-4,4 -4,-472 222,-472 222,4 -4,4"/>
<!-- 0 -->
<g id="node1" class="node"><title>0</title>
<ellipse fill="none" stroke="black" cx="105" cy="-450" rx="27" ry="18"/>
<text text-anchor="middle" x="105" y="-446.3" font-family="Times,serif" font-size="14.00">0</text>
</g>
<!-- 1 -->
<g id="node2" class="node"><title>1</title>
<ellipse fill="none" stroke="black" cx="137" cy="-378" rx="27" ry="18"/>
<text text-anchor="middle" x="137" y="-374.3" font-family="Times,serif" font-size="14.00">1</text>
</g>
<!-- 0&#45;&gt;1 -->
<g id="edge1" class="edge"><title>0&#45;&gt;1</title>
<path fill="none" stroke="black" d="M106.994,-431.697C110.047,-423.073 114.7,-412.504 119.532,-403.102"/>
<polygon fill="black" stroke="black" points="122.668,-404.66 124.37,-394.202 116.519,-401.316 122.668,-404.66"/>
</g>
<!-- 2 -->
<g id="node3" class="node"><title>2</title>
<ellipse fill="none" stroke="black" cx="73" cy="-234" rx="27" ry="18"/>
<text text-anchor="middle" x="73" y="-230.3" font-family="Times,serif" font-size="14.00">2</text>
</g>
<!-- 0&#45;&gt;2 -->
<g id="edge2" class="edge"><title>0&#45;&gt;2</title>
<path fill="none" stroke="black" d="M98.646,-432.208C89.5591,-395.342 76.0775,-307.045 72.3852,-262.171"/>
<polygon fill="black" stroke="black" points="75.8641,-261.744 71.6795,-252.01 68.8809,-262.229 75.8641,-261.744"/>
</g>
<!-- 4 -->
<g id="node5" class="node"><title>4</title>
<ellipse fill="none" stroke="black" cx="149" cy="-18" rx="27" ry="18"/>
<text text-anchor="middle" x="149" y="-14.3" font-family="Times,serif" font-size="14.00">4</text>
</g>
<!-- 0&#45;&gt;4 -->
<g id="edge3" class="edge"><title>0&#45;&gt;4</title>
<path fill="none" stroke="black" d="M120.669,-435.269C133.852,-425.78 151.917,-412.009 164,-396 189.706,-361.943 200,-349.669 200,-307 200,-307 200,-307 200,-161 200,-117.428 175.734,-71.8455 160.38,-44.4317"/>
<polygon fill="black" stroke="black" points="163.326,-42.5291 155.376,-35.5259 157.224,-45.9584 163.326,-42.5291"/>
</g>
<!-- 5 -->
<g id="node6" class="node"><title>5</title>
<ellipse fill="none" stroke="black" cx="85" cy="-90" rx="27" ry="18"/>
<text text-anchor="middle" x="85" y="-86.3" font-family="Times,serif" font-size="14.00">5</text>
</g>
<!-- 0&#45;&gt;5 -->
<g id="edge4" class="edge"><title>0&#45;&gt;5</title>
<path fill="none" stroke="black" d="M84.7969,-437.525C54,-415.443 0,-364.135 0,-307 0,-307 0,-307 0,-233 0,-184.646 34.6795,-136.823 59.9602,-110.878"/>
<polygon fill="black" stroke="black" points="62.4353,-113.353 67.1296,-103.855 57.5368,-108.352 62.4353,-113.353"/>
</g>
<!-- 1&#45;&gt;0 -->
<g id="edge5" class="edge"><title>1&#45;&gt;0</title>
<path fill="none" stroke="black" d="M135.068,-396.127C132.021,-404.771 127.345,-415.404 122.487,-424.862"/>
<polygon fill="black" stroke="black" points="119.323,-423.354 117.622,-433.811 125.473,-426.697 119.323,-423.354"/>
</g>
<!-- 3 -->
<g id="node4" class="node"><title>3</title>
<ellipse fill="none" stroke="black" cx="137" cy="-306" rx="27" ry="18"/>
<text text-anchor="middle" x="137" y="-302.3" font-family="Times,serif" font-size="14.00">3</text>
</g>
<!-- 1&#45;&gt;3 -->
<g id="edge6" class="edge"><title>1&#45;&gt;3</title>
<path fill="none" stroke="black" d="M131.16,-360.411C130.297,-352.507 130.048,-342.852 130.412,-333.935"/>
<polygon fill="black" stroke="black" points="133.903,-334.179 131.121,-323.956 126.921,-333.683 133.903,-334.179"/>
</g>
<!-- 2&#45;&gt;0 -->
<g id="edge7" class="edge"><title>2&#45;&gt;0</title>
<path fill="none" stroke="deeppink" d="M79.3166,-251.641C88.3923,-288.369 101.883,-376.669 105.601,-421.658"/>
<polygon fill="deeppink" stroke="deeppink" points="102.124,-422.118 106.313,-431.849 109.107,-421.63 102.124,-422.118"/>
</g>
<!-- 2&#45;&gt;3 -->
<g id="edge8" class="edge"><title>2&#45;&gt;3</title>
<path fill="none" stroke="black" d="M90.6234,-248.331C100.297,-257.498 112.007,-269.934 121.348,-280.821"/>
<polygon fill="black" stroke="black" points="118.871,-283.316 127.957,-288.765 124.252,-278.839 118.871,-283.316"/>
</g>
<!-- 3&#45;&gt;1 -->
<g id="edge9" class="edge"><title>3&#45;&gt;1</title>
<path fill="none" stroke="black" d="M142.879,-323.956C143.714,-331.827 143.948,-341.374 143.583,-350.187"/>
<polygon fill="black" stroke="black" points="140.074,-350.184 142.84,-360.411 147.056,-350.691 140.074,-350.184"/>
</g>
<!-- 3&#45;&gt;2 -->
<g id="edge10" class="edge"><title>3&#45;&gt;2</title>
<path fill="none" stroke="black" d="M119.551,-291.834C109.809,-282.618 97.9638,-270.041 88.5498,-259.06"/>
<polygon fill="black" stroke="black" points="90.9826,-256.511 81.8998,-251.057 85.5986,-260.985 90.9826,-256.511"/>
</g>
<!-- 7 -->
<g id="node8" class="node"><title>7</title>
<ellipse fill="none" stroke="black" cx="145" cy="-234" rx="27" ry="18"/>
<text text-anchor="middle" x="145" y="-230.3" font-family="Times,serif" font-size="14.00">7</text>
</g>
<!-- 3&#45;&gt;7 -->
<g id="edge11" class="edge"><title>3&#45;&gt;7</title>
<path fill="none" stroke="black" d="M133.058,-288.055C133.124,-280.028 134.013,-270.257 135.433,-261.298"/>
<polygon fill="black" stroke="black" points="138.904,-261.784 137.328,-251.307 132.026,-260.48 138.904,-261.784"/>
</g>
<!-- 4&#45;&gt;0 -->
<g id="edge12" class="edge"><title>4&#45;&gt;0</title>
<path fill="none" stroke="black" d="M164.887,-33.0844C185.642,-57.6888 218,-110.685 218,-161 218,-307 218,-307 218,-307 218,-349.669 207.706,-361.943 182,-396 170.09,-411.779 152.369,-425.384 136.767,-434.858"/>
<polygon fill="black" stroke="black" points="134.825,-431.938 127.886,-439.944 138.303,-438.012 134.825,-431.938"/>
</g>
<!-- 4&#45;&gt;5 -->
<g id="edge13" class="edge"><title>4&#45;&gt;5</title>
<path fill="none" stroke="black" d="M140.1,-35.0567C132.066,-45.0937 120.302,-58.1053 109.616,-68.8347"/>
<polygon fill="black" stroke="black" points="107.158,-66.3427 102.449,-75.8335 112.049,-71.3508 107.158,-66.3427"/>
</g>
<!-- 4&#45;&gt;7 -->
<g id="edge14" class="edge"><title>4&#45;&gt;7</title>
<path fill="none" stroke="black" d="M152.546,-36.0103C155.415,-73.0781 154.029,-161.391 150.163,-206.093"/>
<polygon fill="black" stroke="black" points="146.664,-205.91 149.157,-216.208 153.629,-206.603 146.664,-205.91"/>
</g>
<!-- 5&#45;&gt;0 -->
<g id="edge15" class="edge"><title>5&#45;&gt;0</title>
<path fill="none" stroke="black" d="M75.3863,-106.979C56.4128,-131.808 18,-182.11 18,-233 18,-307 18,-307 18,-307 18,-356.564 58.6374,-401.743 84.5544,-427.262"/>
<polygon fill="black" stroke="black" points="82.1285,-429.785 91.7459,-434.23 86.9994,-424.758 82.1285,-429.785"/>
</g>
<!-- 5&#45;&gt;4 -->
<g id="edge16" class="edge"><title>5&#45;&gt;4</title>
<path fill="none" stroke="black" d="M94.043,-72.7646C101.967,-62.8847 113.453,-50.1725 123.962,-39.5898"/>
<polygon fill="black" stroke="black" points="126.679,-41.8277 131.377,-32.3312 121.782,-36.8254 126.679,-41.8277"/>
</g>
<!-- 6 -->
<g id="node7" class="node"><title>6</title>
<ellipse fill="none" stroke="black" cx="85" cy="-162" rx="27" ry="18"/>
<text text-anchor="middle" x="85" y="-158.3" font-family="Times,serif" font-size="14.00">6</text>
</g>
<!-- 5&#45;&gt;6 -->
<g id="edge17" class="edge"><title>5&#45;&gt;6</title>
<path fill="none" stroke="black" d="M90.8794,-107.956C91.7139,-115.827 91.9485,-125.374 91.5831,-134.187"/>
<polygon fill="black" stroke="black" points="88.0742,-134.184 90.8399,-144.411 95.0558,-134.691 88.0742,-134.184"/>
</g>
<!-- 6&#45;&gt;5 -->
<g id="edge18" class="edge"><title>6&#45;&gt;5</title>
<path fill="none" stroke="black" d="M79.1601,-144.411C78.2975,-136.507 78.0481,-126.852 78.4119,-117.935"/>
<polygon fill="black" stroke="black" points="81.9033,-118.179 79.1206,-107.956 74.9209,-117.683 81.9033,-118.179"/>
</g>
<!-- 6&#45;&gt;7 -->
<g id="edge19" class="edge"><title>6&#45;&gt;7</title>
<path fill="none" stroke="black" d="M101.862,-176.331C111.011,-185.498 122.011,-197.934 130.73,-208.821"/>
<polygon fill="black" stroke="black" points="127.993,-211.004 136.885,-216.765 133.527,-206.716 127.993,-211.004"/>
</g>
<!-- 7&#45;&gt;3 -->
<g id="edge20" class="edge"><title>7&#45;&gt;3</title>
<path fill="none" stroke="black" d="M148.942,-251.956C148.876,-259.914 148.001,-269.584 146.602,-278.477"/>
<polygon fill="black" stroke="black" points="143.142,-277.937 144.736,-288.411 150.022,-279.229 143.142,-277.937"/>
</g>
<!-- 7&#45;&gt;4 -->
<g id="edge21" class="edge"><title>7&#45;&gt;4</title>
<path fill="none" stroke="black" d="M141.443,-215.849C138.592,-178.74 139.973,-90.7467 143.824,-46.0544"/>
<polygon fill="black" stroke="black" points="147.324,-46.2317 144.827,-35.9354 140.358,-45.5417 147.324,-46.2317"/>
</g>
<!-- 7&#45;&gt;6 -->
<g id="edge22" class="edge"><title>7&#45;&gt;6</title>
<path fill="none" stroke="black" d="M128.303,-219.834C119.151,-210.681 108.114,-198.213 99.3558,-187.286"/>
<polygon fill="black" stroke="black" points="102.066,-185.069 93.1717,-179.311 96.5339,-189.358 102.066,-185.069"/>
</g>
</g>
</svg>
