<?xml version="1.0" encoding="UTF-8" standalone="no"?>
<!DOCTYPE svg PUBLIC "-//W3C//DTD SVG 1.1//EN"
 "http://www.w3.org/Graphics/SVG/1.1/DTD/svg11.dtd">
<!-- Generated by graphviz version 2.36.0 (20140111.2315)
 -->
<!-- Title: poze/10msgxx0.1 Pages: 1 -->
<svg width="322pt" height="548pt"
 viewBox="0.00 0.00 322.00 548.00" xmlns="http://www.w3.org/2000/svg" xmlns:xlink="http://www.w3.org/1999/xlink">
<g id="graph0" class="graph" transform="scale(1 1) rotate(0) translate(4 544)">
<title>poze/10msgxx0.1</title>
<polygon fill="white" stroke="none" points="-4,4 -4,-544 318,-544 318,4 -4,4"/>
<!-- 0 -->
<g id="node1" class="node"><title>0</title>
<ellipse fill="none" stroke="black" cx="193" cy="-522" rx="27" ry="18"/>
<text text-anchor="middle" x="193" y="-518.3" font-family="Times,serif" font-size="14.00">0</text>
</g>
<!-- 1 -->
<g id="node2" class="node"><title>1</title>
<ellipse fill="none" stroke="black" cx="129" cy="-450" rx="27" ry="18"/>
<text text-anchor="middle" x="129" y="-446.3" font-family="Times,serif" font-size="14.00">1</text>
</g>
<!-- 0&#45;&gt;1 -->
<g id="edge1" class="edge"><title>0&#45;&gt;1</title>
<path fill="none" stroke="deeppink" d="M175.551,-507.834C165.809,-498.618 153.964,-486.041 144.55,-475.06"/>
<polygon fill="deeppink" stroke="deeppink" points="146.983,-472.511 137.9,-467.057 141.599,-476.985 146.983,-472.511"/>
</g>
<!-- 2 -->
<g id="node3" class="node"><title>2</title>
<ellipse fill="none" stroke="black" cx="65" cy="-18" rx="27" ry="18"/>
<text text-anchor="middle" x="65" y="-14.3" font-family="Times,serif" font-size="14.00">2</text>
</g>
<!-- 0&#45;&gt;2 -->
<g id="edge2" class="edge"><title>0&#45;&gt;2</title>
<path fill="none" stroke="black" d="M167.705,-515.693C115.13,-502.003 0,-460.711 0,-379 0,-379 0,-379 0,-161 0,-116.044 24.5905,-68.3146 43.8002,-41.2281"/>
<polygon fill="black" stroke="black" points="46.6258,-43.2939 49.81,-33.1889 41.0192,-39.1026 46.6258,-43.2939"/>
</g>
<!-- 3 -->
<g id="node4" class="node"><title>3</title>
<ellipse fill="none" stroke="black" cx="129" cy="-378" rx="27" ry="18"/>
<text text-anchor="middle" x="129" y="-374.3" font-family="Times,serif" font-size="14.00">3</text>
</g>
<!-- 0&#45;&gt;3 -->
<g id="edge3" class="edge"><title>0&#45;&gt;3</title>
<path fill="none" stroke="black" d="M182.972,-505.037C176.109,-486.804 167.784,-456.349 156,-432 151.445,-422.588 145.382,-412.943 139.977,-404.504"/>
<polygon fill="black" stroke="black" points="142.806,-402.431 134.473,-395.888 136.907,-406.2 142.806,-402.431"/>
</g>
<!-- 4 -->
<g id="node5" class="node"><title>4</title>
<ellipse fill="none" stroke="black" cx="161" cy="-162" rx="27" ry="18"/>
<text text-anchor="middle" x="161" y="-158.3" font-family="Times,serif" font-size="14.00">4</text>
</g>
<!-- 0&#45;&gt;4 -->
<g id="edge4" class="edge"><title>0&#45;&gt;4</title>
<path fill="none" stroke="black" d="M208.936,-507.331C238.141,-484.855 296,-436.773 296,-379 296,-379 296,-379 296,-305 296,-244.216 230.146,-200.703 190.289,-178.9"/>
<polygon fill="black" stroke="black" points="191.722,-175.698 181.252,-174.077 188.427,-181.873 191.722,-175.698"/>
</g>
<!-- 5 -->
<g id="node6" class="node"><title>5</title>
<ellipse fill="none" stroke="black" cx="129" cy="-234" rx="27" ry="18"/>
<text text-anchor="middle" x="129" y="-230.3" font-family="Times,serif" font-size="14.00">5</text>
</g>
<!-- 0&#45;&gt;5 -->
<g id="edge5" class="edge"><title>0&#45;&gt;5</title>
<path fill="none" stroke="black" d="M186.026,-504.295C185.246,-493.864 185.771,-480.152 186,-468 187.529,-386.911 187.66,-362.669 156,-288 151.918,-278.374 145.98,-268.671 140.545,-260.246"/>
<polygon fill="black" stroke="black" points="143.348,-258.136 134.957,-251.669 137.484,-261.958 143.348,-258.136"/>
</g>
<!-- 1&#45;&gt;0 -->
<g id="edge6" class="edge"><title>1&#45;&gt;0</title>
<path fill="none" stroke="black" d="M146.623,-464.331C156.297,-473.498 168.007,-485.934 177.348,-496.821"/>
<polygon fill="black" stroke="black" points="174.871,-499.316 183.957,-504.765 180.252,-494.839 174.871,-499.316"/>
</g>
<!-- 1&#45;&gt;3 -->
<g id="edge7" class="edge"><title>1&#45;&gt;3</title>
<path fill="none" stroke="black" d="M123.16,-432.411C122.297,-424.507 122.048,-414.852 122.412,-405.935"/>
<polygon fill="black" stroke="black" points="125.903,-406.179 123.121,-395.956 118.921,-405.683 125.903,-406.179"/>
</g>
<!-- 2&#45;&gt;0 -->
<g id="edge8" class="edge"><title>2&#45;&gt;0</title>
<path fill="none" stroke="black" d="M59.4336,-35.6457C46.3042,-61.3451 18,-112.769 18,-161 18,-379 18,-379 18,-379 18,-451.443 108.494,-492.116 159.451,-509.95"/>
<polygon fill="black" stroke="black" points="158.483,-513.318 169.077,-513.215 160.732,-506.689 158.483,-513.318"/>
</g>
<!-- 2&#45;&gt;3 -->
<g id="edge9" class="edge"><title>2&#45;&gt;3</title>
<path fill="none" stroke="black" d="M70.6582,-35.6146C74,-62.127 74,-115.639 74,-161 74,-235 74,-235 74,-235 74,-279.024 99.8841,-324.484 116.415,-351.748"/>
<polygon fill="black" stroke="black" points="113.619,-353.886 121.815,-360.601 119.596,-350.241 113.619,-353.886"/>
</g>
<!-- 7 -->
<g id="node8" class="node"><title>7</title>
<ellipse fill="none" stroke="black" cx="129" cy="-90" rx="27" ry="18"/>
<text text-anchor="middle" x="129" y="-86.3" font-family="Times,serif" font-size="14.00">7</text>
</g>
<!-- 2&#45;&gt;7 -->
<g id="edge10" class="edge"><title>2&#45;&gt;7</title>
<path fill="none" stroke="black" d="M82.6234,-32.3312C92.2967,-41.498 104.007,-53.9342 113.348,-64.8211"/>
<polygon fill="black" stroke="black" points="110.871,-67.3157 119.957,-72.7646 116.252,-62.8388 110.871,-67.3157"/>
</g>
<!-- 3&#45;&gt;0 -->
<g id="edge11" class="edge"><title>3&#45;&gt;0</title>
<path fill="none" stroke="black" d="M146.64,-391.85C156.211,-402.199 166.925,-417.382 174,-432 183.628,-451.895 190.948,-475.867 194.321,-493.917"/>
<polygon fill="black" stroke="black" points="190.898,-494.686 195.868,-504.043 197.817,-493.629 190.898,-494.686"/>
</g>
<!-- 3&#45;&gt;1 -->
<g id="edge12" class="edge"><title>3&#45;&gt;1</title>
<path fill="none" stroke="black" d="M134.879,-395.956C135.714,-403.827 135.948,-413.374 135.583,-422.187"/>
<polygon fill="black" stroke="black" points="132.074,-422.184 134.84,-432.411 139.056,-422.691 132.074,-422.184"/>
</g>
<!-- 3&#45;&gt;2 -->
<g id="edge13" class="edge"><title>3&#45;&gt;2</title>
<path fill="none" stroke="black" d="M112.765,-363.414C90.8838,-339.15 56,-286.108 56,-235 56,-235 56,-235 56,-161 56,-120.777 56,-74.1462 58.3299,-45.613"/>
<polygon fill="black" stroke="black" points="61.817,-45.9163 59.3418,-35.6146 54.8526,-45.2114 61.817,-45.9163"/>
</g>
<!-- 3&#45;&gt;4 -->
<g id="edge14" class="edge"><title>3&#45;&gt;4</title>
<path fill="none" stroke="black" d="M136.308,-360.243C143.095,-350.445 151.881,-337.396 156,-324 169.881,-278.86 163.704,-223.199 160.479,-190.55"/>
<polygon fill="black" stroke="black" points="163.946,-190.04 159.532,-180.409 156.977,-190.691 163.946,-190.04"/>
</g>
<!-- 6 -->
<g id="node7" class="node"><title>6</title>
<ellipse fill="none" stroke="black" cx="129" cy="-306" rx="27" ry="18"/>
<text text-anchor="middle" x="129" y="-302.3" font-family="Times,serif" font-size="14.00">6</text>
</g>
<!-- 3&#45;&gt;6 -->
<g id="edge15" class="edge"><title>3&#45;&gt;6</title>
<path fill="none" stroke="black" d="M123.16,-360.411C122.297,-352.507 122.048,-342.852 122.412,-333.935"/>
<polygon fill="black" stroke="black" points="125.903,-334.179 123.121,-323.956 118.921,-333.683 125.903,-334.179"/>
</g>
<!-- 4&#45;&gt;0 -->
<g id="edge16" class="edge"><title>4&#45;&gt;0</title>
<path fill="none" stroke="black" d="M184.661,-170.859C227.858,-188.554 314,-235.481 314,-305 314,-379 314,-379 314,-379 314,-435.298 259.056,-482.394 223.042,-505.56"/>
<polygon fill="black" stroke="black" points="221.015,-502.698 214.339,-510.925 224.688,-508.657 221.015,-502.698"/>
</g>
<!-- 4&#45;&gt;3 -->
<g id="edge17" class="edge"><title>4&#45;&gt;3</title>
<path fill="none" stroke="black" d="M169.941,-178.995C179.744,-208.457 189.697,-272.955 174,-324 170.308,-336.006 162.869,-347.732 154.934,-357.09"/>
<polygon fill="black" stroke="black" points="152.153,-354.941 147.915,-364.651 157.283,-359.703 152.153,-354.941"/>
</g>
<!-- 4&#45;&gt;5 -->
<g id="edge18" class="edge"><title>4&#45;&gt;5</title>
<path fill="none" stroke="black" d="M159.068,-180.127C156.021,-188.771 151.345,-199.404 146.487,-208.862"/>
<polygon fill="black" stroke="black" points="143.323,-207.354 141.622,-217.811 149.473,-210.697 143.323,-207.354"/>
</g>
<!-- 4&#45;&gt;7 -->
<g id="edge19" class="edge"><title>4&#45;&gt;7</title>
<path fill="none" stroke="black" d="M148.378,-145.811C143.61,-137.574 138.547,-127.155 134.593,-117.618"/>
<polygon fill="black" stroke="black" points="137.797,-116.197 130.932,-108.127 131.266,-118.716 137.797,-116.197"/>
</g>
<!-- 5&#45;&gt;0 -->
<g id="edge20" class="edge"><title>5&#45;&gt;0</title>
<path fill="none" stroke="black" d="M147.047,-247.665C156.843,-257.912 167.66,-273.048 174,-288 205.66,-362.669 205.529,-386.911 204,-468 203.836,-476.674 203.522,-486.142 202.742,-494.645"/>
<polygon fill="black" stroke="black" points="199.244,-494.411 201.48,-504.767 206.19,-495.277 199.244,-494.411"/>
</g>
<!-- 5&#45;&gt;4 -->
<g id="edge21" class="edge"><title>5&#45;&gt;4</title>
<path fill="none" stroke="black" d="M130.994,-215.697C134.047,-207.073 138.7,-196.504 143.532,-187.102"/>
<polygon fill="black" stroke="black" points="146.668,-188.66 148.37,-178.202 140.519,-185.316 146.668,-188.66"/>
</g>
<!-- 5&#45;&gt;6 -->
<g id="edge22" class="edge"><title>5&#45;&gt;6</title>
<path fill="none" stroke="black" d="M134.879,-251.956C135.714,-259.827 135.948,-269.374 135.583,-278.187"/>
<polygon fill="black" stroke="black" points="132.074,-278.184 134.84,-288.411 139.056,-278.691 132.074,-278.184"/>
</g>
<!-- 6&#45;&gt;3 -->
<g id="edge23" class="edge"><title>6&#45;&gt;3</title>
<path fill="none" stroke="black" d="M134.879,-323.956C135.714,-331.827 135.948,-341.374 135.583,-350.187"/>
<polygon fill="black" stroke="black" points="132.074,-350.184 134.84,-360.411 139.056,-350.691 132.074,-350.184"/>
</g>
<!-- 6&#45;&gt;5 -->
<g id="edge24" class="edge"><title>6&#45;&gt;5</title>
<path fill="none" stroke="black" d="M123.16,-288.411C122.297,-280.507 122.048,-270.852 122.412,-261.935"/>
<polygon fill="black" stroke="black" points="125.903,-262.179 123.121,-251.956 118.921,-261.683 125.903,-262.179"/>
</g>
<!-- 7&#45;&gt;2 -->
<g id="edge25" class="edge"><title>7&#45;&gt;2</title>
<path fill="none" stroke="black" d="M111.551,-75.8335C101.809,-66.6182 89.9638,-54.0405 80.5498,-43.06"/>
<polygon fill="black" stroke="black" points="82.9826,-40.5113 73.8998,-35.0567 77.5986,-44.9849 82.9826,-40.5113"/>
</g>
<!-- 7&#45;&gt;4 -->
<g id="edge26" class="edge"><title>7&#45;&gt;4</title>
<path fill="none" stroke="black" d="M141.63,-106.202C146.372,-114.396 151.404,-124.747 155.348,-134.24"/>
<polygon fill="black" stroke="black" points="152.134,-135.633 159.006,-143.697 158.662,-133.107 152.134,-135.633"/>
</g>
</g>
</svg>
