<?xml version="1.0" encoding="UTF-8" standalone="no"?>
<!DOCTYPE svg PUBLIC "-//W3C//DTD SVG 1.1//EN"
 "http://www.w3.org/Graphics/SVG/1.1/DTD/svg11.dtd">
<!-- Generated by graphviz version 2.36.0 (20140111.2315)
 -->
<!-- Title: poze/25msgxx0.2 Pages: 1 -->
<svg width="262pt" height="404pt"
 viewBox="0.00 0.00 261.53 404.00" xmlns="http://www.w3.org/2000/svg" xmlns:xlink="http://www.w3.org/1999/xlink">
<g id="graph0" class="graph" transform="scale(1 1) rotate(0) translate(4 400)">
<title>poze/25msgxx0.2</title>
<polygon fill="white" stroke="none" points="-4,4 -4,-400 257.527,-400 257.527,4 -4,4"/>
<!-- 0 -->
<g id="node1" class="node"><title>0</title>
<ellipse fill="none" stroke="black" cx="184.527" cy="-378" rx="27" ry="18"/>
<text text-anchor="middle" x="184.527" y="-374.3" font-family="Times,serif" font-size="14.00">0</text>
</g>
<!-- 2 -->
<g id="node3" class="node"><title>2</title>
<ellipse fill="none" stroke="black" cx="80.5274" cy="-306" rx="27" ry="18"/>
<text text-anchor="middle" x="80.5274" y="-302.3" font-family="Times,serif" font-size="14.00">2</text>
</g>
<!-- 0&#45;&gt;2 -->
<g id="edge1" class="edge"><title>0&#45;&gt;2</title>
<path fill="none" stroke="deeppink" d="M163.723,-366.369C146.464,-355.982 122.2,-339.912 104.229,-327.109"/>
<polygon fill="deeppink" stroke="deeppink" points="106.123,-324.159 95.9713,-321.126 102.016,-329.828 106.123,-324.159"/>
</g>
<!-- 6 -->
<g id="node7" class="node"><title>6</title>
<ellipse fill="none" stroke="black" cx="198.527" cy="-18" rx="27" ry="18"/>
<text text-anchor="middle" x="198.527" y="-14.3" font-family="Times,serif" font-size="14.00">6</text>
</g>
<!-- 0&#45;&gt;6 -->
<g id="edge2" class="edge"><title>0&#45;&gt;6</title>
<path fill="none" stroke="black" d="M190.903,-360.474C205.201,-334.931 235.527,-283.709 235.527,-235 235.527,-235 235.527,-235 235.527,-161 235.527,-118.995 217.085,-73.2533 205.84,-45.3475"/>
<polygon fill="black" stroke="black" points="209.031,-43.9006 202.07,-35.9133 202.531,-46.4981 209.031,-43.9006"/>
</g>
<!-- 7 -->
<g id="node8" class="node"><title>7</title>
<ellipse fill="none" stroke="black" cx="180.527" cy="-90" rx="27" ry="18"/>
<text text-anchor="middle" x="180.527" y="-86.3" font-family="Times,serif" font-size="14.00">7</text>
</g>
<!-- 0&#45;&gt;7 -->
<g id="edge3" class="edge"><title>0&#45;&gt;7</title>
<path fill="none" stroke="black" d="M180.876,-359.966C176.025,-312.178 173.877,-176.544 176.742,-118.215"/>
<polygon fill="black" stroke="black" points="180.253,-118.137 177.359,-107.945 173.266,-117.717 180.253,-118.137"/>
</g>
<!-- 1 -->
<g id="node2" class="node"><title>1</title>
<ellipse fill="none" stroke="black" cx="52.5274" cy="-90" rx="27" ry="18"/>
<text text-anchor="middle" x="52.5274" y="-86.3" font-family="Times,serif" font-size="14.00">1</text>
</g>
<!-- 1&#45;&gt;2 -->
<g id="edge4" class="edge"><title>1&#45;&gt;2</title>
<path fill="none" stroke="black" d="M43.5551,-107.466C35.9034,-117.173 26.1414,-130.227 21.5274,-144 16.4449,-159.171 17.5827,-164.494 21.5274,-180 30.991,-217.2 54.0161,-255.29 68.6426,-279.487"/>
<polygon fill="black" stroke="black" points="65.8205,-281.586 73.9719,-288.353 71.8202,-277.979 65.8205,-281.586"/>
</g>
<!-- 5 -->
<g id="node6" class="node"><title>5</title>
<ellipse fill="none" stroke="black" cx="98.5274" cy="-18" rx="27" ry="18"/>
<text text-anchor="middle" x="98.5274" y="-14.3" font-family="Times,serif" font-size="14.00">5</text>
</g>
<!-- 1&#45;&gt;5 -->
<g id="edge5" class="edge"><title>1&#45;&gt;5</title>
<path fill="none" stroke="black" d="M57.7845,-72.055C62.8199,-62.9168 70.1502,-51.5174 77.2961,-41.6297"/>
<polygon fill="black" stroke="black" points="80.2534,-43.5205 83.466,-33.4245 74.6586,-39.3135 80.2534,-43.5205"/>
</g>
<!-- 8 -->
<g id="node9" class="node"><title>8</title>
<ellipse fill="none" stroke="black" cx="120.527" cy="-162" rx="27" ry="18"/>
<text text-anchor="middle" x="120.527" y="-158.3" font-family="Times,serif" font-size="14.00">8</text>
</g>
<!-- 1&#45;&gt;8 -->
<g id="edge6" class="edge"><title>1&#45;&gt;8</title>
<path fill="none" stroke="black" d="M70.3026,-103.784C80.7684,-113.14 93.7195,-126.105 103.957,-137.328"/>
<polygon fill="black" stroke="black" points="101.606,-139.953 110.858,-145.116 106.846,-135.31 101.606,-139.953"/>
</g>
<!-- 2&#45;&gt;0 -->
<g id="edge7" class="edge"><title>2&#45;&gt;0</title>
<path fill="none" stroke="black" d="M101.471,-317.715C118.71,-328.097 142.873,-344.103 160.793,-356.867"/>
<polygon fill="black" stroke="black" points="158.878,-359.802 169.03,-362.834 162.985,-354.133 158.878,-359.802"/>
</g>
<!-- 2&#45;&gt;1 -->
<g id="edge8" class="edge"><title>2&#45;&gt;1</title>
<path fill="none" stroke="black" d="M64.4176,-291.353C44.9603,-269.355 14.7345,-224.053 3.52742,-180 -0.417278,-164.494 -1.55507,-159.171 3.52742,-144 7.80382,-131.235 16.5025,-119.087 25.5533,-109.649"/>
<polygon fill="black" stroke="black" points="28.007,-112.146 32.8095,-102.702 23.1659,-107.09 28.007,-112.146"/>
</g>
<!-- 3 -->
<g id="node4" class="node"><title>3</title>
<ellipse fill="none" stroke="black" cx="48.5274" cy="-162" rx="27" ry="18"/>
<text text-anchor="middle" x="48.5274" y="-158.3" font-family="Times,serif" font-size="14.00">3</text>
</g>
<!-- 2&#45;&gt;3 -->
<g id="edge9" class="edge"><title>2&#45;&gt;3</title>
<path fill="none" stroke="black" d="M72.3627,-288.711C64.3104,-264.705 53.808,-219.525 49.2382,-190.372"/>
<polygon fill="black" stroke="black" points="52.698,-189.84 47.8386,-180.425 45.7662,-190.815 52.698,-189.84"/>
</g>
<!-- 4 -->
<g id="node5" class="node"><title>4</title>
<ellipse fill="none" stroke="black" cx="112.527" cy="-234" rx="27" ry="18"/>
<text text-anchor="middle" x="112.527" y="-230.3" font-family="Times,serif" font-size="14.00">4</text>
</g>
<!-- 2&#45;&gt;4 -->
<g id="edge10" class="edge"><title>2&#45;&gt;4</title>
<path fill="none" stroke="black" d="M82.5218,-287.697C85.5745,-279.073 90.2277,-268.504 95.0593,-259.102"/>
<polygon fill="black" stroke="black" points="98.1959,-260.66 99.8977,-250.202 92.0461,-257.316 98.1959,-260.66"/>
</g>
<!-- 3&#45;&gt;2 -->
<g id="edge11" class="edge"><title>3&#45;&gt;2</title>
<path fill="none" stroke="black" d="M56.6998,-179.312C64.7802,-203.411 75.3244,-248.811 79.866,-277.944"/>
<polygon fill="black" stroke="black" points="76.4028,-278.451 81.252,-287.871 83.3356,-277.484 76.4028,-278.451"/>
</g>
<!-- 3&#45;&gt;4 -->
<g id="edge12" class="edge"><title>3&#45;&gt;4</title>
<path fill="none" stroke="black" d="M66.1508,-176.331C75.8241,-185.498 87.5343,-197.934 96.8757,-208.821"/>
<polygon fill="black" stroke="black" points="94.3982,-211.316 103.484,-216.765 99.7794,-206.839 94.3982,-211.316"/>
</g>
<!-- 4&#45;&gt;2 -->
<g id="edge13" class="edge"><title>4&#45;&gt;2</title>
<path fill="none" stroke="black" d="M110.595,-252.127C107.548,-260.771 102.872,-271.404 98.0145,-280.862"/>
<polygon fill="black" stroke="black" points="94.8506,-279.354 93.1494,-289.811 101.001,-282.697 94.8506,-279.354"/>
</g>
<!-- 4&#45;&gt;3 -->
<g id="edge14" class="edge"><title>4&#45;&gt;3</title>
<path fill="none" stroke="black" d="M95.0781,-219.834C85.3363,-210.618 73.4913,-198.041 64.0772,-187.06"/>
<polygon fill="black" stroke="black" points="66.51,-184.511 57.4272,-179.057 61.126,-188.985 66.51,-184.511"/>
</g>
<!-- 4&#45;&gt;8 -->
<g id="edge15" class="edge"><title>4&#45;&gt;8</title>
<path fill="none" stroke="black" d="M108.586,-216.055C108.651,-208.028 109.54,-198.257 110.961,-189.298"/>
<polygon fill="black" stroke="black" points="114.431,-189.784 112.855,-179.307 107.554,-188.48 114.431,-189.784"/>
</g>
<!-- 5&#45;&gt;1 -->
<g id="edge16" class="edge"><title>5&#45;&gt;1</title>
<path fill="none" stroke="black" d="M93.3179,-35.8586C88.2461,-45.0751 80.8245,-56.6111 73.6087,-66.5777"/>
<polygon fill="black" stroke="black" points="70.6094,-64.7422 67.3849,-74.8345 76.1992,-68.9558 70.6094,-64.7422"/>
</g>
<!-- 5&#45;&gt;8 -->
<g id="edge17" class="edge"><title>5&#45;&gt;8</title>
<path fill="none" stroke="black" d="M105.666,-35.7483C111.999,-59.8651 119.242,-104.651 121.743,-133.619"/>
<polygon fill="black" stroke="black" points="118.271,-134.139 122.458,-143.871 125.254,-133.652 118.271,-134.139"/>
</g>
<!-- 6&#45;&gt;0 -->
<g id="edge18" class="edge"><title>6&#45;&gt;0</title>
<path fill="none" stroke="black" d="M212.243,-33.8255C228.983,-59.1084 253.527,-112.541 253.527,-161 253.527,-235 253.527,-235 253.527,-235 253.527,-280.401 227.18,-327.986 206.786,-354.924"/>
<polygon fill="black" stroke="black" points="203.911,-352.915 200.414,-362.916 209.385,-357.278 203.911,-352.915"/>
</g>
<!-- 6&#45;&gt;7 -->
<g id="edge19" class="edge"><title>6&#45;&gt;7</title>
<path fill="none" stroke="black" d="M199.995,-36.2921C198.736,-44.4766 196.384,-54.4151 193.625,-63.4465"/>
<polygon fill="black" stroke="black" points="190.243,-62.5219 190.373,-73.1159 196.878,-64.7534 190.243,-62.5219"/>
</g>
<!-- 7&#45;&gt;0 -->
<g id="edge20" class="edge"><title>7&#45;&gt;0</title>
<path fill="none" stroke="black" d="M184.169,-107.945C189.024,-155.623 191.176,-291.251 188.318,-349.676"/>
<polygon fill="black" stroke="black" points="184.806,-349.775 187.702,-359.966 191.793,-350.193 184.806,-349.775"/>
</g>
<!-- 7&#45;&gt;6 -->
<g id="edge21" class="edge"><title>7&#45;&gt;6</title>
<path fill="none" stroke="black" d="M179.061,-71.6966C180.311,-63.5778 182.635,-53.7351 185.366,-44.7642"/>
<polygon fill="black" stroke="black" points="188.73,-45.7384 188.585,-35.1446 182.092,-43.5166 188.73,-45.7384"/>
</g>
<!-- 7&#45;&gt;8 -->
<g id="edge22" class="edge"><title>7&#45;&gt;8</title>
<path fill="none" stroke="black" d="M172.356,-107.311C164.958,-117.233 154.155,-129.989 144.232,-140.578"/>
<polygon fill="black" stroke="black" points="141.654,-138.209 137.224,-147.834 146.689,-143.072 141.654,-138.209"/>
</g>
<!-- 8&#45;&gt;1 -->
<g id="edge23" class="edge"><title>8&#45;&gt;1</title>
<path fill="none" stroke="black" d="M102.691,-148.161C92.2512,-138.823 79.3528,-125.911 69.1419,-114.721"/>
<polygon fill="black" stroke="black" points="71.5082,-112.114 62.2555,-106.952 66.2702,-116.757 71.5082,-112.114"/>
</g>
<!-- 8&#45;&gt;4 -->
<g id="edge24" class="edge"><title>8&#45;&gt;4</title>
<path fill="none" stroke="black" d="M124.469,-179.956C124.403,-187.914 123.529,-197.584 122.129,-206.477"/>
<polygon fill="black" stroke="black" points="118.67,-205.937 120.263,-216.411 125.55,-207.229 118.67,-205.937"/>
</g>
<!-- 8&#45;&gt;5 -->
<g id="edge25" class="edge"><title>8&#45;&gt;5</title>
<path fill="none" stroke="black" d="M113.436,-144.433C107.111,-120.43 99.8615,-75.6842 97.3334,-46.6353"/>
<polygon fill="black" stroke="black" points="100.803,-46.0753 96.6075,-36.3465 93.8201,-46.5681 100.803,-46.0753"/>
</g>
<!-- 8&#45;&gt;7 -->
<g id="edge26" class="edge"><title>8&#45;&gt;7</title>
<path fill="none" stroke="black" d="M128.643,-144.765C136.003,-134.885 146.761,-122.172 156.666,-111.59"/>
<polygon fill="black" stroke="black" points="159.243,-113.959 163.666,-104.331 154.205,-109.1 159.243,-113.959"/>
</g>
</g>
</svg>
