<?xml version="1.0" encoding="UTF-8" standalone="no"?>
<!DOCTYPE svg PUBLIC "-//W3C//DTD SVG 1.1//EN"
 "http://www.w3.org/Graphics/SVG/1.1/DTD/svg11.dtd">
<!-- Generated by graphviz version 2.36.0 (20140111.2315)
 -->
<!-- Title: poze/50msgxx3.2 Pages: 1 -->
<svg width="354pt" height="692pt"
 viewBox="0.00 0.00 354.00 692.00" xmlns="http://www.w3.org/2000/svg" xmlns:xlink="http://www.w3.org/1999/xlink">
<g id="graph0" class="graph" transform="scale(1 1) rotate(0) translate(4 688)">
<title>poze/50msgxx3.2</title>
<polygon fill="white" stroke="none" points="-4,4 -4,-688 350,-688 350,4 -4,4"/>
<!-- 0 -->
<g id="node1" class="node"><title>0</title>
<ellipse fill="none" stroke="black" cx="305" cy="-666" rx="27" ry="18"/>
<text text-anchor="middle" x="305" y="-662.3" font-family="Times,serif" font-size="14.00">0</text>
</g>
<!-- 1 -->
<g id="node2" class="node"><title>1</title>
<ellipse fill="none" stroke="black" cx="273" cy="-594" rx="27" ry="18"/>
<text text-anchor="middle" x="273" y="-590.3" font-family="Times,serif" font-size="14.00">1</text>
</g>
<!-- 0&#45;&gt;1 -->
<g id="edge1" class="edge"><title>0&#45;&gt;1</title>
<path fill="none" stroke="black" d="M292.378,-649.811C287.61,-641.574 282.547,-631.155 278.593,-621.618"/>
<polygon fill="black" stroke="black" points="281.797,-620.197 274.932,-612.127 275.266,-622.716 281.797,-620.197"/>
</g>
<!-- 5 -->
<g id="node6" class="node"><title>5</title>
<ellipse fill="none" stroke="black" cx="305" cy="-306" rx="27" ry="18"/>
<text text-anchor="middle" x="305" y="-302.3" font-family="Times,serif" font-size="14.00">5</text>
</g>
<!-- 0&#45;&gt;5 -->
<g id="edge2" class="edge"><title>0&#45;&gt;5</title>
<path fill="none" stroke="black" d="M305.71,-647.793C311.826,-621.361 328,-568.993 328,-523 328,-523 328,-523 328,-449 328,-408.217 315.283,-362.422 308.137,-334.141"/>
<polygon fill="black" stroke="black" points="311.484,-333.09 305.71,-324.207 304.684,-334.752 311.484,-333.09"/>
</g>
<!-- 1&#45;&gt;0 -->
<g id="edge3" class="edge"><title>1&#45;&gt;0</title>
<path fill="none" stroke="black" d="M285.63,-610.202C290.372,-618.396 295.404,-628.747 299.348,-638.24"/>
<polygon fill="black" stroke="black" points="296.134,-639.633 303.006,-647.697 302.662,-637.107 296.134,-639.633"/>
</g>
<!-- 2 -->
<g id="node3" class="node"><title>2</title>
<ellipse fill="none" stroke="black" cx="273" cy="-522" rx="27" ry="18"/>
<text text-anchor="middle" x="273" y="-518.3" font-family="Times,serif" font-size="14.00">2</text>
</g>
<!-- 1&#45;&gt;2 -->
<g id="edge4" class="edge"><title>1&#45;&gt;2</title>
<path fill="none" stroke="black" d="M267.16,-576.411C266.297,-568.507 266.048,-558.852 266.412,-549.935"/>
<polygon fill="black" stroke="black" points="269.903,-550.179 267.121,-539.956 262.921,-549.683 269.903,-550.179"/>
</g>
<!-- 2&#45;&gt;1 -->
<g id="edge5" class="edge"><title>2&#45;&gt;1</title>
<path fill="none" stroke="black" d="M278.879,-539.956C279.714,-547.827 279.948,-557.374 279.583,-566.187"/>
<polygon fill="black" stroke="black" points="276.074,-566.184 278.84,-576.411 283.056,-566.691 276.074,-566.184"/>
</g>
<!-- 3 -->
<g id="node4" class="node"><title>3</title>
<ellipse fill="none" stroke="black" cx="273" cy="-450" rx="27" ry="18"/>
<text text-anchor="middle" x="273" y="-446.3" font-family="Times,serif" font-size="14.00">3</text>
</g>
<!-- 2&#45;&gt;3 -->
<g id="edge6" class="edge"><title>2&#45;&gt;3</title>
<path fill="none" stroke="black" d="M267.16,-504.411C266.297,-496.507 266.048,-486.852 266.412,-477.935"/>
<polygon fill="black" stroke="black" points="269.903,-478.179 267.121,-467.956 262.921,-477.683 269.903,-478.179"/>
</g>
<!-- 7 -->
<g id="node8" class="node"><title>7</title>
<ellipse fill="none" stroke="black" cx="129" cy="-450" rx="27" ry="18"/>
<text text-anchor="middle" x="129" y="-446.3" font-family="Times,serif" font-size="14.00">7</text>
</g>
<!-- 2&#45;&gt;7 -->
<g id="edge7" class="edge"><title>2&#45;&gt;7</title>
<path fill="none" stroke="black" d="M250.089,-512.134C224.766,-500.945 184.332,-481.477 157.14,-467.514"/>
<polygon fill="black" stroke="black" points="158.609,-464.333 148.121,-462.828 155.381,-470.544 158.609,-464.333"/>
</g>
<!-- 3&#45;&gt;2 -->
<g id="edge8" class="edge"><title>3&#45;&gt;2</title>
<path fill="none" stroke="deeppink" d="M278.879,-467.956C279.714,-475.827 279.948,-485.374 279.583,-494.187"/>
<polygon fill="deeppink" stroke="deeppink" points="276.074,-494.184 278.84,-504.411 283.056,-494.691 276.074,-494.184"/>
</g>
<!-- 4 -->
<g id="node5" class="node"><title>4</title>
<ellipse fill="none" stroke="black" cx="273" cy="-378" rx="27" ry="18"/>
<text text-anchor="middle" x="273" y="-374.3" font-family="Times,serif" font-size="14.00">4</text>
</g>
<!-- 3&#45;&gt;4 -->
<g id="edge9" class="edge"><title>3&#45;&gt;4</title>
<path fill="none" stroke="black" d="M267.16,-432.411C266.297,-424.507 266.048,-414.852 266.412,-405.935"/>
<polygon fill="black" stroke="black" points="269.903,-406.179 267.121,-395.956 262.921,-405.683 269.903,-406.179"/>
</g>
<!-- 4&#45;&gt;3 -->
<g id="edge10" class="edge"><title>4&#45;&gt;3</title>
<path fill="none" stroke="black" d="M278.879,-395.956C279.714,-403.827 279.948,-413.374 279.583,-422.187"/>
<polygon fill="black" stroke="black" points="276.074,-422.184 278.84,-432.411 283.056,-422.691 276.074,-422.184"/>
</g>
<!-- 4&#45;&gt;5 -->
<g id="edge11" class="edge"><title>4&#45;&gt;5</title>
<path fill="none" stroke="black" d="M274.994,-359.697C278.047,-351.073 282.7,-340.504 287.532,-331.102"/>
<polygon fill="black" stroke="black" points="290.668,-332.66 292.37,-322.202 284.519,-329.316 290.668,-332.66"/>
</g>
<!-- 5&#45;&gt;0 -->
<g id="edge12" class="edge"><title>5&#45;&gt;0</title>
<path fill="none" stroke="black" d="M316.417,-322.502C329.107,-348.334 346,-401.996 346,-449 346,-523 346,-523 346,-523 346,-564.863 332.601,-612.007 320.705,-640.068"/>
<polygon fill="black" stroke="black" points="317.37,-638.946 316.417,-649.498 323.742,-641.843 317.37,-638.946"/>
</g>
<!-- 5&#45;&gt;4 -->
<g id="edge13" class="edge"><title>5&#45;&gt;4</title>
<path fill="none" stroke="black" d="M303.068,-324.127C300.021,-332.771 295.345,-343.404 290.487,-352.862"/>
<polygon fill="black" stroke="black" points="287.323,-351.354 285.622,-361.811 293.473,-354.697 287.323,-351.354"/>
</g>
<!-- 6 -->
<g id="node7" class="node"><title>6</title>
<ellipse fill="none" stroke="black" cx="201" cy="-378" rx="27" ry="18"/>
<text text-anchor="middle" x="201" y="-374.3" font-family="Times,serif" font-size="14.00">6</text>
</g>
<!-- 6&#45;&gt;7 -->
<g id="edge14" class="edge"><title>6&#45;&gt;7</title>
<path fill="none" stroke="black" d="M190.458,-394.846C181.019,-405.186 167.184,-418.749 154.941,-429.714"/>
<polygon fill="black" stroke="black" points="152.418,-427.271 147.188,-436.485 157.022,-432.544 152.418,-427.271"/>
</g>
<!-- 7&#45;&gt;2 -->
<g id="edge15" class="edge"><title>7&#45;&gt;2</title>
<path fill="none" stroke="black" d="M151.813,-459.822C177.097,-470.99 217.532,-490.456 244.757,-504.433"/>
<polygon fill="black" stroke="black" points="243.302,-507.621 253.789,-509.125 246.529,-501.409 243.302,-507.621"/>
</g>
<!-- 7&#45;&gt;6 -->
<g id="edge16" class="edge"><title>7&#45;&gt;6</title>
<path fill="none" stroke="black" d="M139.577,-433.116C149.005,-422.792 162.801,-409.267 175.019,-398.321"/>
<polygon fill="black" stroke="black" points="177.53,-400.775 182.758,-391.56 172.925,-395.503 177.53,-400.775"/>
</g>
<!-- 8 -->
<g id="node9" class="node"><title>8</title>
<ellipse fill="none" stroke="black" cx="41" cy="-18" rx="27" ry="18"/>
<text text-anchor="middle" x="41" y="-14.3" font-family="Times,serif" font-size="14.00">8</text>
</g>
<!-- 7&#45;&gt;8 -->
<g id="edge17" class="edge"><title>7&#45;&gt;8</title>
<path fill="none" stroke="black" d="M106.785,-439.376C69.6259,-419.385 0,-369.94 0,-307 0,-307 0,-307 0,-161 0,-119.137 13.3994,-71.9928 25.2955,-43.9316"/>
<polygon fill="black" stroke="black" points="28.63,-45.0537 29.5826,-34.5018 22.2577,-42.1566 28.63,-45.0537"/>
</g>
<!-- 10 -->
<g id="node11" class="node"><title>10</title>
<ellipse fill="none" stroke="black" cx="73" cy="-162" rx="27" ry="18"/>
<text text-anchor="middle" x="73" y="-158.3" font-family="Times,serif" font-size="14.00">10</text>
</g>
<!-- 7&#45;&gt;10 -->
<g id="edge18" class="edge"><title>7&#45;&gt;10</title>
<path fill="none" stroke="black" d="M110.451,-436.53C100.379,-426.391 89.4333,-411.304 84,-396 58.7143,-324.778 59.6268,-233.935 65.4674,-189.665"/>
<polygon fill="black" stroke="black" points="68.9389,-190.118 67.0007,-179.702 62.0203,-189.053 68.9389,-190.118"/>
</g>
<!-- 13 -->
<g id="node14" class="node"><title>13</title>
<ellipse fill="none" stroke="black" cx="129" cy="-378" rx="27" ry="18"/>
<text text-anchor="middle" x="129" y="-374.3" font-family="Times,serif" font-size="14.00">13</text>
</g>
<!-- 7&#45;&gt;13 -->
<g id="edge19" class="edge"><title>7&#45;&gt;13</title>
<path fill="none" stroke="black" d="M123.16,-432.411C122.297,-424.507 122.048,-414.852 122.412,-405.935"/>
<polygon fill="black" stroke="black" points="125.903,-406.179 123.121,-395.956 118.921,-405.683 125.903,-406.179"/>
</g>
<!-- 8&#45;&gt;7 -->
<g id="edge20" class="edge"><title>8&#45;&gt;7</title>
<path fill="none" stroke="black" d="M40.2903,-36.2066C34.1738,-62.6388 18,-115.007 18,-161 18,-307 18,-307 18,-307 18,-361.666 70.523,-406.152 103.466,-430.001"/>
<polygon fill="black" stroke="black" points="101.595,-432.965 111.777,-435.893 105.643,-427.254 101.595,-432.965"/>
</g>
<!-- 9 -->
<g id="node10" class="node"><title>9</title>
<ellipse fill="none" stroke="black" cx="73" cy="-90" rx="27" ry="18"/>
<text text-anchor="middle" x="73" y="-86.3" font-family="Times,serif" font-size="14.00">9</text>
</g>
<!-- 8&#45;&gt;9 -->
<g id="edge21" class="edge"><title>8&#45;&gt;9</title>
<path fill="none" stroke="black" d="M53.6297,-34.2024C58.3724,-42.3962 63.4045,-52.7471 67.3479,-62.2404"/>
<polygon fill="black" stroke="black" points="64.1337,-63.6327 71.0056,-71.6966 70.6623,-61.1073 64.1337,-63.6327"/>
</g>
<!-- 9&#45;&gt;8 -->
<g id="edge22" class="edge"><title>9&#45;&gt;8</title>
<path fill="none" stroke="black" d="M60.3781,-73.811C55.6095,-65.5743 50.5475,-55.1548 46.5931,-45.6176"/>
<polygon fill="black" stroke="black" points="49.7966,-44.1969 42.932,-36.1267 43.2656,-46.7163 49.7966,-44.1969"/>
</g>
<!-- 9&#45;&gt;10 -->
<g id="edge23" class="edge"><title>9&#45;&gt;10</title>
<path fill="none" stroke="black" d="M78.8794,-107.956C79.7139,-115.827 79.9485,-125.374 79.5831,-134.187"/>
<polygon fill="black" stroke="black" points="76.0742,-134.184 78.8399,-144.411 83.0558,-134.691 76.0742,-134.184"/>
</g>
<!-- 10&#45;&gt;7 -->
<g id="edge24" class="edge"><title>10&#45;&gt;7</title>
<path fill="none" stroke="black" d="M76.2359,-179.994C77.939,-219.318 74.6974,-319.096 102,-396 105.444,-405.699 111.101,-415.311 116.497,-423.632"/>
<polygon fill="black" stroke="black" points="113.677,-425.712 122.133,-432.097 119.504,-421.833 113.677,-425.712"/>
</g>
<!-- 10&#45;&gt;9 -->
<g id="edge25" class="edge"><title>10&#45;&gt;9</title>
<path fill="none" stroke="black" d="M67.1601,-144.411C66.2975,-136.507 66.0481,-126.852 66.4119,-117.935"/>
<polygon fill="black" stroke="black" points="69.9033,-118.179 67.1206,-107.956 62.9209,-117.683 69.9033,-118.179"/>
</g>
<!-- 11 -->
<g id="node12" class="node"><title>11</title>
<ellipse fill="none" stroke="black" cx="129" cy="-234" rx="27" ry="18"/>
<text text-anchor="middle" x="129" y="-230.3" font-family="Times,serif" font-size="14.00">11</text>
</g>
<!-- 10&#45;&gt;11 -->
<g id="edge26" class="edge"><title>10&#45;&gt;11</title>
<path fill="none" stroke="black" d="M89.3991,-176.65C97.8167,-185.629 107.763,-197.642 115.701,-208.27"/>
<polygon fill="black" stroke="black" points="112.882,-210.345 121.569,-216.411 118.561,-206.252 112.882,-210.345"/>
</g>
<!-- 11&#45;&gt;10 -->
<g id="edge27" class="edge"><title>11&#45;&gt;10</title>
<path fill="none" stroke="black" d="M112.745,-219.503C104.266,-210.475 94.2095,-198.33 86.212,-187.613"/>
<polygon fill="black" stroke="black" points="88.9915,-185.484 80.3091,-179.412 83.3101,-189.573 88.9915,-185.484"/>
</g>
<!-- 12 -->
<g id="node13" class="node"><title>12</title>
<ellipse fill="none" stroke="black" cx="129" cy="-306" rx="27" ry="18"/>
<text text-anchor="middle" x="129" y="-302.3" font-family="Times,serif" font-size="14.00">12</text>
</g>
<!-- 11&#45;&gt;12 -->
<g id="edge28" class="edge"><title>11&#45;&gt;12</title>
<path fill="none" stroke="black" d="M134.879,-251.956C135.714,-259.827 135.948,-269.374 135.583,-278.187"/>
<polygon fill="black" stroke="black" points="132.074,-278.184 134.84,-288.411 139.056,-278.691 132.074,-278.184"/>
</g>
<!-- 12&#45;&gt;11 -->
<g id="edge29" class="edge"><title>12&#45;&gt;11</title>
<path fill="none" stroke="black" d="M123.16,-288.411C122.297,-280.507 122.048,-270.852 122.412,-261.935"/>
<polygon fill="black" stroke="black" points="125.903,-262.179 123.121,-251.956 118.921,-261.683 125.903,-262.179"/>
</g>
<!-- 12&#45;&gt;13 -->
<g id="edge30" class="edge"><title>12&#45;&gt;13</title>
<path fill="none" stroke="black" d="M134.879,-323.956C135.714,-331.827 135.948,-341.374 135.583,-350.187"/>
<polygon fill="black" stroke="black" points="132.074,-350.184 134.84,-360.411 139.056,-350.691 132.074,-350.184"/>
</g>
<!-- 13&#45;&gt;7 -->
<g id="edge31" class="edge"><title>13&#45;&gt;7</title>
<path fill="none" stroke="black" d="M134.879,-395.956C135.714,-403.827 135.948,-413.374 135.583,-422.187"/>
<polygon fill="black" stroke="black" points="132.074,-422.184 134.84,-432.411 139.056,-422.691 132.074,-422.184"/>
</g>
<!-- 13&#45;&gt;12 -->
<g id="edge32" class="edge"><title>13&#45;&gt;12</title>
<path fill="none" stroke="black" d="M123.16,-360.411C122.297,-352.507 122.048,-342.852 122.412,-333.935"/>
<polygon fill="black" stroke="black" points="125.903,-334.179 123.121,-323.956 118.921,-333.683 125.903,-334.179"/>
</g>
</g>
</svg>
