<?xml version="1.0" encoding="UTF-8" standalone="no"?>
<!DOCTYPE svg PUBLIC "-//W3C//DTD SVG 1.1//EN"
 "http://www.w3.org/Graphics/SVG/1.1/DTD/svg11.dtd">
<!-- Generated by graphviz version 2.36.0 (20140111.2315)
 -->
<!-- Title: poze/50msgxx3.7 Pages: 1 -->
<svg width="302pt" height="476pt"
 viewBox="0.00 0.00 301.62 476.00" xmlns="http://www.w3.org/2000/svg" xmlns:xlink="http://www.w3.org/1999/xlink">
<g id="graph0" class="graph" transform="scale(1 1) rotate(0) translate(4 472)">
<title>poze/50msgxx3.7</title>
<polygon fill="white" stroke="none" points="-4,4 -4,-472 297.616,-472 297.616,4 -4,4"/>
<!-- 0 -->
<g id="node1" class="node"><title>0</title>
<ellipse fill="none" stroke="black" cx="172.616" cy="-450" rx="27" ry="18"/>
<text text-anchor="middle" x="172.616" y="-446.3" font-family="Times,serif" font-size="14.00">0</text>
</g>
<!-- 1 -->
<g id="node2" class="node"><title>1</title>
<ellipse fill="none" stroke="black" cx="108.616" cy="-378" rx="27" ry="18"/>
<text text-anchor="middle" x="108.616" y="-374.3" font-family="Times,serif" font-size="14.00">1</text>
</g>
<!-- 0&#45;&gt;1 -->
<g id="edge1" class="edge"><title>0&#45;&gt;1</title>
<path fill="none" stroke="black" d="M155.167,-435.834C145.425,-426.618 133.58,-414.041 124.166,-403.06"/>
<polygon fill="black" stroke="black" points="126.599,-400.511 117.516,-395.057 121.215,-404.985 126.599,-400.511"/>
</g>
<!-- 2 -->
<g id="node3" class="node"><title>2</title>
<ellipse fill="none" stroke="black" cx="164.616" cy="-162" rx="27" ry="18"/>
<text text-anchor="middle" x="164.616" y="-158.3" font-family="Times,serif" font-size="14.00">2</text>
</g>
<!-- 0&#45;&gt;2 -->
<g id="edge2" class="edge"><title>0&#45;&gt;2</title>
<path fill="none" stroke="black" d="M168.727,-431.966C163.208,-384.178 159.163,-248.544 161.212,-190.215"/>
<polygon fill="black" stroke="black" points="164.721,-190.095 161.685,-179.945 157.728,-189.773 164.721,-190.095"/>
</g>
<!-- 3 -->
<g id="node4" class="node"><title>3</title>
<ellipse fill="none" stroke="black" cx="52.6162" cy="-306" rx="27" ry="18"/>
<text text-anchor="middle" x="52.6162" y="-302.3" font-family="Times,serif" font-size="14.00">3</text>
</g>
<!-- 0&#45;&gt;3 -->
<g id="edge3" class="edge"><title>0&#45;&gt;3</title>
<path fill="none" stroke="black" d="M146.842,-444.062C121.336,-437.208 83.8907,-422.546 63.6162,-396 49.9729,-378.136 45.3103,-352.723 45.3977,-333.623"/>
<polygon fill="black" stroke="black" points="48.901,-333.652 45.9365,-323.481 41.9108,-333.281 48.901,-333.652"/>
</g>
<!-- 4 -->
<g id="node5" class="node"><title>4</title>
<ellipse fill="none" stroke="black" cx="60.6162" cy="-18" rx="27" ry="18"/>
<text text-anchor="middle" x="60.6162" y="-14.3" font-family="Times,serif" font-size="14.00">4</text>
</g>
<!-- 0&#45;&gt;4 -->
<g id="edge4" class="edge"><title>0&#45;&gt;4</title>
<path fill="none" stroke="black" d="M188.553,-435.331C217.757,-412.855 275.616,-364.773 275.616,-307 275.616,-307 275.616,-307 275.616,-161 275.616,-75.4704 157.681,-39.2989 96.3964,-25.8881"/>
<polygon fill="black" stroke="black" points="96.8684,-22.411 86.3629,-23.784 95.4316,-29.262 96.8684,-22.411"/>
</g>
<!-- 5 -->
<g id="node6" class="node"><title>5</title>
<ellipse fill="none" stroke="black" cx="92.6162" cy="-90" rx="27" ry="18"/>
<text text-anchor="middle" x="92.6162" y="-86.3" font-family="Times,serif" font-size="14.00">5</text>
</g>
<!-- 0&#45;&gt;5 -->
<g id="edge5" class="edge"><title>0&#45;&gt;5</title>
<path fill="none" stroke="black" d="M178.183,-432.354C191.312,-406.655 219.616,-355.231 219.616,-307 219.616,-307 219.616,-307 219.616,-233 219.616,-191.533 218.636,-175.455 191.616,-144 174.267,-123.803 147.417,-110.579 125.94,-102.391"/>
<polygon fill="black" stroke="black" points="127.099,-99.0881 116.505,-98.9764 124.717,-105.67 127.099,-99.0881"/>
</g>
<!-- 1&#45;&gt;0 -->
<g id="edge6" class="edge"><title>1&#45;&gt;0</title>
<path fill="none" stroke="black" d="M126.24,-392.331C135.913,-401.498 147.623,-413.934 156.964,-424.821"/>
<polygon fill="black" stroke="black" points="154.487,-427.316 163.573,-432.765 159.868,-422.839 154.487,-427.316"/>
</g>
<!-- 1&#45;&gt;3 -->
<g id="edge7" class="edge"><title>1&#45;&gt;3</title>
<path fill="none" stroke="black" d="M92.3608,-363.503C83.882,-354.475 73.8257,-342.33 65.8282,-331.613"/>
<polygon fill="black" stroke="black" points="68.6077,-329.484 59.9252,-323.412 62.9263,-333.573 68.6077,-329.484"/>
</g>
<!-- 2&#45;&gt;0 -->
<g id="edge8" class="edge"><title>2&#45;&gt;0</title>
<path fill="none" stroke="black" d="M168.495,-179.945C174.016,-227.623 178.066,-363.251 176.024,-421.676"/>
<polygon fill="black" stroke="black" points="172.514,-421.816 175.553,-431.966 179.507,-422.137 172.514,-421.816"/>
</g>
<!-- 2&#45;&gt;3 -->
<g id="edge9" class="edge"><title>2&#45;&gt;3</title>
<path fill="none" stroke="black" d="M156.295,-179.242C138.901,-204.881 99.7376,-254.756 74.6737,-283.39"/>
<polygon fill="black" stroke="black" points="72.0511,-281.072 68.0081,-290.865 77.2758,-285.731 72.0511,-281.072"/>
</g>
<!-- 7 -->
<g id="node8" class="node"><title>7</title>
<ellipse fill="none" stroke="black" cx="52.6162" cy="-234" rx="27" ry="18"/>
<text text-anchor="middle" x="52.6162" y="-230.3" font-family="Times,serif" font-size="14.00">7</text>
</g>
<!-- 2&#45;&gt;7 -->
<g id="edge10" class="edge"><title>2&#45;&gt;7</title>
<path fill="none" stroke="black" d="M148.393,-176.556C131.151,-188.353 103.888,-205.439 82.7563,-217.718"/>
<polygon fill="black" stroke="black" points="80.7745,-214.82 73.83,-222.821 84.2486,-220.897 80.7745,-214.82"/>
</g>
<!-- 3&#45;&gt;0 -->
<g id="edge11" class="edge"><title>3&#45;&gt;0</title>
<path fill="none" stroke="black" d="M58.813,-323.824C61.9006,-343.134 65.4673,-374.856 81.6162,-396 96.4774,-415.458 120.564,-428.531 140.336,-436.824"/>
<polygon fill="black" stroke="black" points="139.051,-440.08 149.637,-440.519 141.635,-433.574 139.051,-440.08"/>
</g>
<!-- 3&#45;&gt;1 -->
<g id="edge12" class="edge"><title>3&#45;&gt;1</title>
<path fill="none" stroke="black" d="M69.0153,-320.65C77.4329,-329.629 87.3787,-341.642 95.3167,-352.27"/>
<polygon fill="black" stroke="black" points="92.4983,-354.345 101.185,-360.411 98.1769,-350.252 92.4983,-354.345"/>
</g>
<!-- 3&#45;&gt;2 -->
<g id="edge13" class="edge"><title>3&#45;&gt;2</title>
<path fill="none" stroke="black" d="M60.9701,-288.711C78.3393,-263.117 117.328,-213.458 142.384,-184.81"/>
<polygon fill="black" stroke="black" points="145.319,-186.777 149.362,-176.984 140.094,-182.118 145.319,-186.777"/>
</g>
<!-- 3&#45;&gt;4 -->
<g id="edge14" class="edge"><title>3&#45;&gt;4</title>
<path fill="none" stroke="black" d="M33.7014,-292.651C23.4275,-282.578 12.3895,-267.523 7.61619,-252 -15.2756,-177.557 19.6992,-85.8889 43.1458,-43.1135"/>
<polygon fill="black" stroke="black" points="46.2781,-44.6878 48.2377,-34.2757 40.2128,-41.1931 46.2781,-44.6878"/>
</g>
<!-- 3&#45;&gt;7 -->
<g id="edge15" class="edge"><title>3&#45;&gt;7</title>
<path fill="none" stroke="deeppink" d="M46.7763,-288.411C45.9137,-280.507 45.6643,-270.852 46.028,-261.935"/>
<polygon fill="deeppink" stroke="deeppink" points="49.5195,-262.179 46.7368,-251.956 42.537,-261.683 49.5195,-262.179"/>
</g>
<!-- 4&#45;&gt;0 -->
<g id="edge16" class="edge"><title>4&#45;&gt;0</title>
<path fill="none" stroke="black" d="M87.2236,-22.2797C148.571,-32.0004 293.616,-66.1481 293.616,-161 293.616,-307 293.616,-307 293.616,-307 293.616,-363.298 238.672,-410.394 202.658,-433.56"/>
<polygon fill="black" stroke="black" points="200.631,-430.698 193.955,-438.925 204.304,-436.657 200.631,-430.698"/>
</g>
<!-- 4&#45;&gt;3 -->
<g id="edge17" class="edge"><title>4&#45;&gt;3</title>
<path fill="none" stroke="black" d="M56.5642,-35.9812C42.0871,-74.8688 1.35609,-173.107 25.6162,-252 28.6414,-261.838 34.183,-271.488 39.6016,-279.801"/>
<polygon fill="black" stroke="black" points="36.8079,-281.918 45.3082,-288.243 42.6071,-277.998 36.8079,-281.918"/>
</g>
<!-- 4&#45;&gt;5 -->
<g id="edge18" class="edge"><title>4&#45;&gt;5</title>
<path fill="none" stroke="black" d="M73.2459,-34.2024C77.9885,-42.3962 83.0206,-52.7471 86.9641,-62.2404"/>
<polygon fill="black" stroke="black" points="83.7499,-63.6327 90.6218,-71.6966 90.2785,-61.1073 83.7499,-63.6327"/>
</g>
<!-- 4&#45;&gt;7 -->
<g id="edge19" class="edge"><title>4&#45;&gt;7</title>
<path fill="none" stroke="black" d="M66.9053,-35.6957C67.2704,-46.124 66.226,-59.8349 65.6162,-72 63.2622,-118.962 62.2748,-173.702 59.3229,-205.735"/>
<polygon fill="black" stroke="black" points="55.8008,-205.747 58.1914,-216.068 62.7592,-206.509 55.8008,-205.747"/>
</g>
<!-- 5&#45;&gt;0 -->
<g id="edge20" class="edge"><title>5&#45;&gt;0</title>
<path fill="none" stroke="black" d="M118.579,-95.5722C145.502,-102.192 186.208,-116.749 209.616,-144 236.636,-175.455 237.616,-191.533 237.616,-233 237.616,-307 237.616,-307 237.616,-307 237.616,-351.956 213.026,-399.685 193.816,-426.772"/>
<polygon fill="black" stroke="black" points="190.99,-424.706 187.806,-434.811 196.597,-428.897 190.99,-424.706"/>
</g>
<!-- 5&#45;&gt;4 -->
<g id="edge21" class="edge"><title>5&#45;&gt;4</title>
<path fill="none" stroke="black" d="M79.9942,-73.811C75.2257,-65.5743 70.1637,-55.1548 66.2093,-45.6176"/>
<polygon fill="black" stroke="black" points="69.4127,-44.1969 62.5482,-36.1267 62.8818,-46.7163 69.4127,-44.1969"/>
</g>
<!-- 6 -->
<g id="node7" class="node"><title>6</title>
<ellipse fill="none" stroke="black" cx="92.6162" cy="-162" rx="27" ry="18"/>
<text text-anchor="middle" x="92.6162" y="-158.3" font-family="Times,serif" font-size="14.00">6</text>
</g>
<!-- 5&#45;&gt;6 -->
<g id="edge22" class="edge"><title>5&#45;&gt;6</title>
<path fill="none" stroke="black" d="M98.4956,-107.956C99.3301,-115.827 99.5647,-125.374 99.1993,-134.187"/>
<polygon fill="black" stroke="black" points="95.6904,-134.184 98.4561,-144.411 102.672,-134.691 95.6904,-134.184"/>
</g>
<!-- 6&#45;&gt;5 -->
<g id="edge23" class="edge"><title>6&#45;&gt;5</title>
<path fill="none" stroke="black" d="M86.7763,-144.411C85.9137,-136.507 85.6643,-126.852 86.028,-117.935"/>
<polygon fill="black" stroke="black" points="89.5195,-118.179 86.7368,-107.956 82.537,-117.683 89.5195,-118.179"/>
</g>
<!-- 6&#45;&gt;7 -->
<g id="edge24" class="edge"><title>6&#45;&gt;7</title>
<path fill="none" stroke="black" d="M88.8089,-179.951C84.6095,-188.975 78.3621,-200.202 72.142,-210.002"/>
<polygon fill="black" stroke="black" points="69.1171,-208.23 66.4969,-218.496 74.947,-212.105 69.1171,-208.23"/>
</g>
<!-- 7&#45;&gt;2 -->
<g id="edge25" class="edge"><title>7&#45;&gt;2</title>
<path fill="none" stroke="black" d="M68.7529,-219.503C85.9423,-207.737 113.158,-190.676 134.3,-178.384"/>
<polygon fill="black" stroke="black" points="136.293,-181.276 143.235,-173.272 132.817,-175.2 136.293,-181.276"/>
</g>
<!-- 7&#45;&gt;3 -->
<g id="edge26" class="edge"><title>7&#45;&gt;3</title>
<path fill="none" stroke="black" d="M58.4956,-251.956C59.3301,-259.827 59.5647,-269.374 59.1993,-278.187"/>
<polygon fill="black" stroke="black" points="55.6904,-278.184 58.4561,-288.411 62.672,-278.691 55.6904,-278.184"/>
</g>
<!-- 7&#45;&gt;4 -->
<g id="edge27" class="edge"><title>7&#45;&gt;4</title>
<path fill="none" stroke="black" d="M47.3204,-216.068C44.0609,-186.718 44.9846,-124.499 47.6162,-72 48.0514,-63.3168 48.7081,-53.8461 49.813,-45.3437"/>
<polygon fill="black" stroke="black" points="53.308,-45.658 51.4692,-35.224 46.3999,-44.5274 53.308,-45.658"/>
</g>
<!-- 7&#45;&gt;6 -->
<g id="edge28" class="edge"><title>7&#45;&gt;6</title>
<path fill="none" stroke="black" d="M56.4208,-216.055C60.5723,-207.133 66.7267,-196.056 72.8774,-186.334"/>
<polygon fill="black" stroke="black" points="75.8668,-188.159 78.4674,-177.888 70.0295,-184.295 75.8668,-188.159"/>
</g>
</g>
</svg>
