<?xml version="1.0" encoding="UTF-8" standalone="no"?>
<!DOCTYPE svg PUBLIC "-//W3C//DTD SVG 1.1//EN"
 "http://www.w3.org/Graphics/SVG/1.1/DTD/svg11.dtd">
<!-- Generated by graphviz version 2.36.0 (20140111.2315)
 -->
<!-- Title: poze/57msgxx12.6 Pages: 1 -->
<svg width="424pt" height="764pt"
 viewBox="0.00 0.00 424.00 764.00" xmlns="http://www.w3.org/2000/svg" xmlns:xlink="http://www.w3.org/1999/xlink">
<g id="graph0" class="graph" transform="scale(1 1) rotate(0) translate(4 760)">
<title>poze/57msgxx12.6</title>
<polygon fill="white" stroke="none" points="-4,4 -4,-760 420,-760 420,4 -4,4"/>
<!-- 0 -->
<g id="node1" class="node"><title>0</title>
<ellipse fill="none" stroke="black" cx="265" cy="-738" rx="27" ry="18"/>
<text text-anchor="middle" x="265" y="-734.3" font-family="Times,serif" font-size="14.00">0</text>
</g>
<!-- 1 -->
<g id="node2" class="node"><title>1</title>
<ellipse fill="none" stroke="black" cx="157" cy="-666" rx="27" ry="18"/>
<text text-anchor="middle" x="157" y="-662.3" font-family="Times,serif" font-size="14.00">1</text>
</g>
<!-- 0&#45;&gt;1 -->
<g id="edge1" class="edge"><title>0&#45;&gt;1</title>
<path fill="none" stroke="black" d="M243.849,-726.52C225.715,-715.984 199.886,-699.49 181.013,-686.535"/>
<polygon fill="black" stroke="black" points="182.832,-683.536 172.628,-680.684 178.826,-689.277 182.832,-683.536"/>
</g>
<!-- 3 -->
<g id="node4" class="node"><title>3</title>
<ellipse fill="none" stroke="black" cx="229" cy="-666" rx="27" ry="18"/>
<text text-anchor="middle" x="229" y="-662.3" font-family="Times,serif" font-size="14.00">3</text>
</g>
<!-- 0&#45;&gt;3 -->
<g id="edge2" class="edge"><title>0&#45;&gt;3</title>
<path fill="none" stroke="black" d="M251.729,-722.155C246.379,-713.787 240.568,-703.088 235.985,-693.344"/>
<polygon fill="black" stroke="black" points="239.118,-691.773 231.875,-684.04 232.715,-694.602 239.118,-691.773"/>
</g>
<!-- 5 -->
<g id="node6" class="node"><title>5</title>
<ellipse fill="none" stroke="black" cx="301" cy="-666" rx="27" ry="18"/>
<text text-anchor="middle" x="301" y="-662.3" font-family="Times,serif" font-size="14.00">5</text>
</g>
<!-- 0&#45;&gt;5 -->
<g id="edge3" class="edge"><title>0&#45;&gt;5</title>
<path fill="none" stroke="black" d="M267.836,-720.055C271.441,-711.224 276.887,-700.281 282.423,-690.632"/>
<polygon fill="black" stroke="black" points="285.53,-692.258 287.702,-681.888 279.537,-688.64 285.53,-692.258"/>
</g>
<!-- 6 -->
<g id="node7" class="node"><title>6</title>
<ellipse fill="none" stroke="black" cx="261" cy="-522" rx="27" ry="18"/>
<text text-anchor="middle" x="261" y="-518.3" font-family="Times,serif" font-size="14.00">6</text>
</g>
<!-- 0&#45;&gt;6 -->
<g id="edge4" class="edge"><title>0&#45;&gt;6</title>
<path fill="none" stroke="black" d="M284.033,-725.204C299.04,-716.416 318.545,-702.7 328,-684 349.658,-641.164 350.205,-618.555 328,-576 319.698,-560.09 304.199,-547.981 290.096,-539.382"/>
<polygon fill="black" stroke="black" points="291.536,-536.173 281.121,-534.234 288.053,-542.245 291.536,-536.173"/>
</g>
<!-- 1&#45;&gt;0 -->
<g id="edge5" class="edge"><title>1&#45;&gt;0</title>
<path fill="none" stroke="black" d="M177.991,-677.386C196.06,-687.876 221.851,-704.339 240.759,-717.309"/>
<polygon fill="black" stroke="black" points="238.962,-720.322 249.166,-723.17 242.965,-714.58 238.962,-720.322"/>
</g>
<!-- 2 -->
<g id="node3" class="node"><title>2</title>
<ellipse fill="none" stroke="black" cx="101" cy="-594" rx="27" ry="18"/>
<text text-anchor="middle" x="101" y="-590.3" font-family="Times,serif" font-size="14.00">2</text>
</g>
<!-- 1&#45;&gt;2 -->
<g id="edge6" class="edge"><title>1&#45;&gt;2</title>
<path fill="none" stroke="black" d="M140.745,-651.503C132.266,-642.475 122.21,-630.33 114.212,-619.613"/>
<polygon fill="black" stroke="black" points="116.992,-617.484 108.309,-611.412 111.31,-621.573 116.992,-617.484"/>
</g>
<!-- 1&#45;&gt;6 -->
<g id="edge7" class="edge"><title>1&#45;&gt;6</title>
<path fill="none" stroke="black" d="M167.176,-648.799C176.577,-638.776 189.827,-625.317 200,-612 215.891,-591.197 230.601,-565.108 241.969,-546.566"/>
<polygon fill="black" stroke="black" points="245.073,-548.205 247.435,-537.877 239.148,-544.478 245.073,-548.205"/>
</g>
<!-- 7 -->
<g id="node8" class="node"><title>7</title>
<ellipse fill="none" stroke="black" cx="93" cy="-234" rx="27" ry="18"/>
<text text-anchor="middle" x="93" y="-230.3" font-family="Times,serif" font-size="14.00">7</text>
</g>
<!-- 1&#45;&gt;7 -->
<g id="edge8" class="edge"><title>1&#45;&gt;7</title>
<path fill="none" stroke="black" d="M133.15,-657.424C88.9821,-640.127 0,-593.683 0,-523 0,-523 0,-523 0,-377 0,-327.207 38.7345,-279.559 66.4155,-254.104"/>
<polygon fill="black" stroke="black" points="69.0355,-256.461 74.2418,-247.234 64.4176,-251.201 69.0355,-256.461"/>
</g>
<!-- 12 -->
<g id="node13" class="node"><title>12</title>
<ellipse fill="none" stroke="black" cx="173" cy="-594" rx="27" ry="18"/>
<text text-anchor="middle" x="173" y="-590.3" font-family="Times,serif" font-size="14.00">12</text>
</g>
<!-- 1&#45;&gt;12 -->
<g id="edge9" class="edge"><title>1&#45;&gt;12</title>
<path fill="none" stroke="black" d="M155.039,-647.697C156.058,-639.578 158.1,-629.735 160.574,-620.764"/>
<polygon fill="black" stroke="black" points="163.939,-621.731 163.519,-611.145 157.245,-619.682 163.939,-621.731"/>
</g>
<!-- 2&#45;&gt;1 -->
<g id="edge10" class="edge"><title>2&#45;&gt;1</title>
<path fill="none" stroke="black" d="M117.399,-608.65C125.817,-617.629 135.763,-629.642 143.701,-640.27"/>
<polygon fill="black" stroke="black" points="140.882,-642.345 149.569,-648.411 146.561,-638.252 140.882,-642.345"/>
</g>
<!-- 2&#45;&gt;7 -->
<g id="edge11" class="edge"><title>2&#45;&gt;7</title>
<path fill="none" stroke="black" d="M88.849,-577.566C75.0042,-551.831 56,-498.305 56,-451 56,-451 56,-451 56,-377 56,-335.375 67.7245,-288.161 78.4384,-260.02"/>
<polygon fill="black" stroke="black" points="81.7613,-261.142 82.3163,-250.562 75.2844,-258.487 81.7613,-261.142"/>
</g>
<!-- 10 -->
<g id="node11" class="node"><title>10</title>
<ellipse fill="none" stroke="black" cx="189" cy="-522" rx="27" ry="18"/>
<text text-anchor="middle" x="189" y="-518.3" font-family="Times,serif" font-size="14.00">10</text>
</g>
<!-- 2&#45;&gt;10 -->
<g id="edge12" class="edge"><title>2&#45;&gt;10</title>
<path fill="none" stroke="black" d="M114.027,-578.155C126.446,-567.184 145.173,-552.204 160.895,-540.625"/>
<polygon fill="black" stroke="black" points="163.199,-543.278 169.26,-534.589 159.103,-537.602 163.199,-543.278"/>
</g>
<!-- 3&#45;&gt;0 -->
<g id="edge13" class="edge"><title>3&#45;&gt;0</title>
<path fill="none" stroke="black" d="M242.298,-681.888C247.658,-690.276 253.477,-700.996 258.058,-710.748"/>
<polygon fill="black" stroke="black" points="254.925,-712.318 262.164,-720.055 261.33,-709.493 254.925,-712.318"/>
</g>
<!-- 4 -->
<g id="node5" class="node"><title>4</title>
<ellipse fill="none" stroke="black" cx="301" cy="-594" rx="27" ry="18"/>
<text text-anchor="middle" x="301" y="-590.3" font-family="Times,serif" font-size="14.00">4</text>
</g>
<!-- 4&#45;&gt;5 -->
<g id="edge14" class="edge"><title>4&#45;&gt;5</title>
<path fill="none" stroke="black" d="M306.879,-611.956C307.714,-619.827 307.948,-629.374 307.583,-638.187"/>
<polygon fill="black" stroke="black" points="304.074,-638.184 306.84,-648.411 311.056,-638.691 304.074,-638.184"/>
</g>
<!-- 5&#45;&gt;0 -->
<g id="edge15" class="edge"><title>5&#45;&gt;0</title>
<path fill="none" stroke="black" d="M298.125,-684.04C294.512,-692.873 289.07,-703.8 283.541,-713.43"/>
<polygon fill="black" stroke="black" points="280.445,-711.786 278.271,-722.155 286.437,-715.405 280.445,-711.786"/>
</g>
<!-- 5&#45;&gt;4 -->
<g id="edge16" class="edge"><title>5&#45;&gt;4</title>
<path fill="none" stroke="black" d="M295.16,-648.411C294.297,-640.507 294.048,-630.852 294.412,-621.935"/>
<polygon fill="black" stroke="black" points="297.903,-622.179 295.121,-611.956 290.921,-621.683 297.903,-622.179"/>
</g>
<!-- 6&#45;&gt;0 -->
<g id="edge17" class="edge"><title>6&#45;&gt;0</title>
<path fill="none" stroke="black" d="M285.677,-529.698C306.376,-537.624 333.871,-552.754 346,-576 368.205,-618.555 367.658,-641.164 346,-684 336.427,-702.933 316.551,-716.758 298.733,-725.532"/>
<polygon fill="black" stroke="black" points="296.787,-722.571 289.124,-729.887 299.677,-728.946 296.787,-722.571"/>
</g>
<!-- 6&#45;&gt;1 -->
<g id="edge18" class="edge"><title>6&#45;&gt;1</title>
<path fill="none" stroke="black" d="M259.216,-540.185C252.146,-558.711 235.816,-588.677 218,-612 208.429,-624.529 196.133,-637.185 184.92,-646.986"/>
<polygon fill="black" stroke="black" points="182.449,-644.489 177,-653.575 186.926,-649.869 182.449,-644.489"/>
</g>
<!-- 6&#45;&gt;12 -->
<g id="edge19" class="edge"><title>6&#45;&gt;12</title>
<path fill="none" stroke="black" d="M247.8,-537.998C235.361,-548.972 216.696,-563.896 201.032,-575.429"/>
<polygon fill="black" stroke="black" points="198.76,-572.752 192.698,-581.441 202.856,-578.429 198.76,-572.752"/>
</g>
<!-- 7&#45;&gt;1 -->
<g id="edge20" class="edge"><title>7&#45;&gt;1</title>
<path fill="none" stroke="black" d="M81.7674,-250.668C60.4563,-275.091 18,-324.869 18,-377 18,-523 18,-523 18,-523 18,-584.941 86.3332,-628.268 127.312,-649.678"/>
<polygon fill="black" stroke="black" points="125.846,-652.859 136.345,-654.281 129.024,-646.622 125.846,-652.859"/>
</g>
<!-- 7&#45;&gt;2 -->
<g id="edge21" class="edge"><title>7&#45;&gt;2</title>
<path fill="none" stroke="black" d="M93.0998,-252.272C88.1521,-278.79 74,-331.268 74,-377 74,-451 74,-451 74,-451 74,-492.044 88.3066,-537.771 96.6273,-565.966"/>
<polygon fill="black" stroke="black" points="93.3484,-567.228 99.4809,-575.867 100.075,-565.289 93.3484,-567.228"/>
</g>
<!-- 8 -->
<g id="node9" class="node"><title>8</title>
<ellipse fill="none" stroke="black" cx="129" cy="-306" rx="27" ry="18"/>
<text text-anchor="middle" x="129" y="-302.3" font-family="Times,serif" font-size="14.00">8</text>
</g>
<!-- 7&#45;&gt;8 -->
<g id="edge22" class="edge"><title>7&#45;&gt;8</title>
<path fill="none" stroke="black" d="M106.298,-249.888C111.658,-258.276 117.477,-268.996 122.058,-278.748"/>
<polygon fill="black" stroke="black" points="118.925,-280.318 126.164,-288.055 125.33,-277.493 118.925,-280.318"/>
</g>
<!-- 14 -->
<g id="node15" class="node"><title>14</title>
<ellipse fill="none" stroke="black" cx="93" cy="-162" rx="27" ry="18"/>
<text text-anchor="middle" x="93" y="-158.3" font-family="Times,serif" font-size="14.00">14</text>
</g>
<!-- 7&#45;&gt;14 -->
<g id="edge23" class="edge"><title>7&#45;&gt;14</title>
<path fill="none" stroke="black" d="M87.1601,-216.411C86.2975,-208.507 86.0481,-198.852 86.4119,-189.935"/>
<polygon fill="black" stroke="black" points="89.9033,-190.179 87.1206,-179.956 82.9209,-189.683 89.9033,-190.179"/>
</g>
<!-- 15 -->
<g id="node16" class="node"><title>15</title>
<ellipse fill="none" stroke="black" cx="179" cy="-162" rx="27" ry="18"/>
<text text-anchor="middle" x="179" y="-158.3" font-family="Times,serif" font-size="14.00">15</text>
</g>
<!-- 7&#45;&gt;15 -->
<g id="edge24" class="edge"><title>7&#45;&gt;15</title>
<path fill="none" stroke="black" d="M105.982,-217.811C118.073,-206.886 136.121,-192.122 151.339,-180.67"/>
<polygon fill="black" stroke="black" points="153.474,-183.444 159.446,-174.693 149.32,-177.809 153.474,-183.444"/>
</g>
<!-- 8&#45;&gt;7 -->
<g id="edge25" class="edge"><title>8&#45;&gt;7</title>
<path fill="none" stroke="black" d="M115.729,-290.155C110.379,-281.787 104.568,-271.088 99.9853,-261.344"/>
<polygon fill="black" stroke="black" points="103.118,-259.773 95.8752,-252.04 96.7145,-262.602 103.118,-259.773"/>
</g>
<!-- 16 -->
<g id="node17" class="node"><title>16</title>
<ellipse fill="none" stroke="black" cx="189" cy="-378" rx="27" ry="18"/>
<text text-anchor="middle" x="189" y="-374.3" font-family="Times,serif" font-size="14.00">16</text>
</g>
<!-- 8&#45;&gt;16 -->
<g id="edge26" class="edge"><title>8&#45;&gt;16</title>
<path fill="none" stroke="black" d="M145.862,-320.331C155.011,-329.498 166.011,-341.934 174.73,-352.821"/>
<polygon fill="black" stroke="black" points="171.993,-355.004 180.885,-360.765 177.527,-350.716 171.993,-355.004"/>
</g>
<!-- 9 -->
<g id="node10" class="node"><title>9</title>
<ellipse fill="none" stroke="black" cx="317" cy="-450" rx="27" ry="18"/>
<text text-anchor="middle" x="317" y="-446.3" font-family="Times,serif" font-size="14.00">9</text>
</g>
<!-- 9&#45;&gt;10 -->
<g id="edge27" class="edge"><title>9&#45;&gt;10</title>
<path fill="none" stroke="black" d="M299.292,-463.598C278.766,-475.823 244.977,-494.337 220.102,-507.013"/>
<polygon fill="black" stroke="black" points="218.416,-503.943 211.051,-511.559 221.558,-510.198 218.416,-503.943"/>
</g>
<!-- 10&#45;&gt;2 -->
<g id="edge28" class="edge"><title>10&#45;&gt;2</title>
<path fill="none" stroke="black" d="M175.8,-537.998C163.361,-548.972 144.696,-563.896 129.032,-575.429"/>
<polygon fill="black" stroke="black" points="126.76,-572.752 120.698,-581.441 130.856,-578.429 126.76,-572.752"/>
</g>
<!-- 10&#45;&gt;9 -->
<g id="edge29" class="edge"><title>10&#45;&gt;9</title>
<path fill="none" stroke="black" d="M206.84,-508.324C227.382,-496.096 261.087,-477.63 285.91,-464.981"/>
<polygon fill="black" stroke="black" points="287.578,-468.06 294.943,-460.443 284.436,-461.805 287.578,-468.06"/>
</g>
<!-- 11 -->
<g id="node12" class="node"><title>11</title>
<ellipse fill="none" stroke="black" cx="389" cy="-450" rx="27" ry="18"/>
<text text-anchor="middle" x="389" y="-446.3" font-family="Times,serif" font-size="14.00">11</text>
</g>
<!-- 10&#45;&gt;11 -->
<g id="edge30" class="edge"><title>10&#45;&gt;11</title>
<path fill="none" stroke="black" d="M206.195,-508.042C209.417,-506.596 212.763,-505.21 216,-504 271.356,-483.311 288.644,-488.689 344,-468 347.86,-466.557 351.875,-464.864 355.877,-463.116"/>
<polygon fill="black" stroke="black" points="357.385,-466.276 365.113,-459.028 354.552,-459.875 357.385,-466.276"/>
</g>
<!-- 10&#45;&gt;16 -->
<g id="edge31" class="edge"><title>10&#45;&gt;16</title>
<path fill="none" stroke="black" d="M170.085,-508.651C159.811,-498.578 148.773,-483.523 144,-468 139.297,-452.707 139.297,-447.293 144,-432 147.692,-419.994 155.131,-408.268 163.066,-398.91"/>
<polygon fill="black" stroke="black" points="165.847,-401.059 170.085,-391.349 160.717,-396.297 165.847,-401.059"/>
</g>
<!-- 17 -->
<g id="node18" class="node"><title>17</title>
<ellipse fill="none" stroke="black" cx="257" cy="-306" rx="27" ry="18"/>
<text text-anchor="middle" x="257" y="-302.3" font-family="Times,serif" font-size="14.00">17</text>
</g>
<!-- 10&#45;&gt;17 -->
<g id="edge32" class="edge"><title>10&#45;&gt;17</title>
<path fill="none" stroke="black" d="M195.002,-504.35C201.502,-494.384 210.502,-481.134 216,-468 234.784,-423.126 242.746,-366.51 248.634,-333.765"/>
<polygon fill="black" stroke="black" points="252.132,-334.104 250.564,-323.626 245.256,-332.795 252.132,-334.104"/>
</g>
<!-- 18 -->
<g id="node19" class="node"><title>18</title>
<ellipse fill="none" stroke="black" cx="189" cy="-450" rx="27" ry="18"/>
<text text-anchor="middle" x="189" y="-446.3" font-family="Times,serif" font-size="14.00">18</text>
</g>
<!-- 10&#45;&gt;18 -->
<g id="edge33" class="edge"><title>10&#45;&gt;18</title>
<path fill="none" stroke="black" d="M183.16,-504.411C182.297,-496.507 182.048,-486.852 182.412,-477.935"/>
<polygon fill="black" stroke="black" points="185.903,-478.179 183.121,-467.956 178.921,-477.683 185.903,-478.179"/>
</g>
<!-- 11&#45;&gt;10 -->
<g id="edge34" class="edge"><title>11&#45;&gt;10</title>
<path fill="none" stroke="black" d="M371.805,-463.958C368.583,-465.404 365.237,-466.79 362,-468 306.644,-488.689 289.356,-483.311 234,-504 230.14,-505.443 226.125,-507.136 222.123,-508.884"/>
<polygon fill="black" stroke="black" points="220.615,-505.724 212.887,-512.972 223.448,-512.125 220.615,-505.724"/>
</g>
<!-- 12&#45;&gt;1 -->
<g id="edge35" class="edge"><title>12&#45;&gt;1</title>
<path fill="none" stroke="black" d="M174.962,-612.292C173.936,-620.477 171.869,-630.415 169.367,-639.446"/>
<polygon fill="black" stroke="black" points="165.988,-638.529 166.391,-649.116 172.678,-640.588 165.988,-638.529"/>
</g>
<!-- 12&#45;&gt;6 -->
<g id="edge36" class="edge"><title>12&#45;&gt;6</title>
<path fill="none" stroke="deeppink" d="M186.027,-578.155C198.446,-567.184 217.173,-552.204 232.895,-540.625"/>
<polygon fill="deeppink" stroke="deeppink" points="235.199,-543.278 241.26,-534.589 231.103,-537.602 235.199,-543.278"/>
</g>
<!-- 13 -->
<g id="node14" class="node"><title>13</title>
<ellipse fill="none" stroke="black" cx="93" cy="-18" rx="27" ry="18"/>
<text text-anchor="middle" x="93" y="-14.3" font-family="Times,serif" font-size="14.00">13</text>
</g>
<!-- 13&#45;&gt;14 -->
<g id="edge37" class="edge"><title>13&#45;&gt;14</title>
<path fill="none" stroke="black" d="M99.1828,-35.691C99.5078,-46.1176 98.4587,-59.8283 98,-72 97.3975,-87.9887 97.3975,-92.0113 98,-108 98.3225,-116.558 98.9369,-125.877 99.1603,-134.281"/>
<polygon fill="black" stroke="black" points="95.6603,-134.317 99.1828,-144.309 102.66,-134.301 95.6603,-134.317"/>
</g>
<!-- 19 -->
<g id="node20" class="node"><title>19</title>
<ellipse fill="none" stroke="black" cx="125" cy="-90" rx="27" ry="18"/>
<text text-anchor="middle" x="125" y="-86.3" font-family="Times,serif" font-size="14.00">19</text>
</g>
<!-- 13&#45;&gt;19 -->
<g id="edge38" class="edge"><title>13&#45;&gt;19</title>
<path fill="none" stroke="black" d="M105.63,-34.2024C110.372,-42.3962 115.404,-52.7471 119.348,-62.2404"/>
<polygon fill="black" stroke="black" points="116.134,-63.6327 123.006,-71.6966 122.662,-61.1073 116.134,-63.6327"/>
</g>
<!-- 14&#45;&gt;7 -->
<g id="edge39" class="edge"><title>14&#45;&gt;7</title>
<path fill="none" stroke="black" d="M98.8794,-179.956C99.7139,-187.827 99.9485,-197.374 99.5831,-206.187"/>
<polygon fill="black" stroke="black" points="96.0742,-206.184 98.8399,-216.411 103.056,-206.691 96.0742,-206.184"/>
</g>
<!-- 14&#45;&gt;13 -->
<g id="edge40" class="edge"><title>14&#45;&gt;13</title>
<path fill="none" stroke="black" d="M83.7485,-144.781C81.5397,-134.298 80.4656,-120.356 80,-108 79.3975,-92.0113 79.3975,-87.9887 80,-72 80.3274,-63.3121 80.9556,-53.8401 82.0676,-45.338"/>
<polygon fill="black" stroke="black" points="85.5623,-45.6578 83.7485,-35.2194 78.6569,-44.5106 85.5623,-45.6578"/>
</g>
<!-- 14&#45;&gt;19 -->
<g id="edge41" class="edge"><title>14&#45;&gt;19</title>
<path fill="none" stroke="black" d="M94.9944,-143.697C98.0471,-135.073 102.7,-124.504 107.532,-115.102"/>
<polygon fill="black" stroke="black" points="110.668,-116.66 112.37,-106.202 104.519,-113.316 110.668,-116.66"/>
</g>
<!-- 15&#45;&gt;7 -->
<g id="edge42" class="edge"><title>15&#45;&gt;7</title>
<path fill="none" stroke="black" d="M166.229,-177.998C154.103,-188.972 135.864,-203.896 120.53,-215.429"/>
<polygon fill="black" stroke="black" points="118.344,-212.693 112.367,-221.441 122.495,-218.329 118.344,-212.693"/>
</g>
<!-- 15&#45;&gt;16 -->
<g id="edge43" class="edge"><title>15&#45;&gt;16</title>
<path fill="none" stroke="black" d="M183.648,-179.935C188.93,-216.847 193.318,-304.825 192.411,-349.685"/>
<polygon fill="black" stroke="black" points="188.907,-349.739 192.076,-359.849 195.904,-349.97 188.907,-349.739"/>
</g>
<!-- 16&#45;&gt;8 -->
<g id="edge44" class="edge"><title>16&#45;&gt;8</title>
<path fill="none" stroke="black" d="M172.303,-363.834C163.151,-354.681 152.114,-342.213 143.356,-331.286"/>
<polygon fill="black" stroke="black" points="146.066,-329.069 137.172,-323.311 140.534,-333.358 146.066,-329.069"/>
</g>
<!-- 16&#45;&gt;10 -->
<g id="edge45" class="edge"><title>16&#45;&gt;10</title>
<path fill="none" stroke="black" d="M181.692,-395.757C174.905,-405.555 166.119,-418.604 162,-432 157.297,-447.293 157.297,-452.707 162,-468 165.025,-477.838 170.567,-487.488 175.985,-495.801"/>
<polygon fill="black" stroke="black" points="173.192,-497.918 181.692,-504.243 178.991,-493.998 173.192,-497.918"/>
</g>
<!-- 16&#45;&gt;15 -->
<g id="edge46" class="edge"><title>16&#45;&gt;15</title>
<path fill="none" stroke="black" d="M184.372,-360.208C179.075,-323.342 174.671,-235.045 175.592,-190.171"/>
<polygon fill="black" stroke="black" points="179.095,-190.121 175.931,-180.01 172.099,-189.888 179.095,-190.121"/>
</g>
<!-- 16&#45;&gt;17 -->
<g id="edge47" class="edge"><title>16&#45;&gt;17</title>
<path fill="none" stroke="black" d="M198.669,-361.116C207.367,-350.956 220.118,-337.696 231.57,-326.844"/>
<polygon fill="black" stroke="black" points="234.247,-329.137 239.225,-319.784 229.501,-323.991 234.247,-329.137"/>
</g>
<!-- 16&#45;&gt;18 -->
<g id="edge48" class="edge"><title>16&#45;&gt;18</title>
<path fill="none" stroke="black" d="M194.879,-395.956C195.714,-403.827 195.948,-413.374 195.583,-422.187"/>
<polygon fill="black" stroke="black" points="192.074,-422.184 194.84,-432.411 199.056,-422.691 192.074,-422.184"/>
</g>
<!-- 17&#45;&gt;10 -->
<g id="edge49" class="edge"><title>17&#45;&gt;10</title>
<path fill="none" stroke="black" d="M261.224,-324.102C262.328,-354.239 254.797,-418.316 234,-468 229.15,-479.587 221.574,-491.264 213.848,-500.697"/>
<polygon fill="black" stroke="black" points="211.084,-498.539 207.085,-508.351 216.33,-503.175 211.084,-498.539"/>
</g>
<!-- 17&#45;&gt;16 -->
<g id="edge50" class="edge"><title>17&#45;&gt;16</title>
<path fill="none" stroke="black" d="M247.272,-322.952C238.585,-333.092 225.885,-346.298 214.469,-357.118"/>
<polygon fill="black" stroke="black" points="211.813,-354.807 206.836,-364.161 216.559,-359.952 211.813,-354.807"/>
</g>
<!-- 18&#45;&gt;10 -->
<g id="edge51" class="edge"><title>18&#45;&gt;10</title>
<path fill="none" stroke="black" d="M194.879,-467.956C195.714,-475.827 195.948,-485.374 195.583,-494.187"/>
<polygon fill="black" stroke="black" points="192.074,-494.184 194.84,-504.411 199.056,-494.691 192.074,-494.184"/>
</g>
<!-- 18&#45;&gt;16 -->
<g id="edge52" class="edge"><title>18&#45;&gt;16</title>
<path fill="none" stroke="black" d="M183.16,-432.411C182.297,-424.507 182.048,-414.852 182.412,-405.935"/>
<polygon fill="black" stroke="black" points="185.903,-406.179 183.121,-395.956 178.921,-405.683 185.903,-406.179"/>
</g>
<!-- 19&#45;&gt;13 -->
<g id="edge53" class="edge"><title>19&#45;&gt;13</title>
<path fill="none" stroke="black" d="M112.378,-73.811C107.61,-65.5743 102.547,-55.1548 98.5931,-45.6176"/>
<polygon fill="black" stroke="black" points="101.797,-44.1969 94.932,-36.1267 95.2656,-46.7163 101.797,-44.1969"/>
</g>
<!-- 19&#45;&gt;14 -->
<g id="edge54" class="edge"><title>19&#45;&gt;14</title>
<path fill="none" stroke="black" d="M123.068,-108.127C120.021,-116.771 115.345,-127.404 110.487,-136.862"/>
<polygon fill="black" stroke="black" points="107.323,-135.354 105.622,-145.811 113.473,-138.697 107.323,-135.354"/>
</g>
</g>
</svg>
